% Case: reference-design
% User: zhughes
% Created with RAPTOR 0.10.2.dev8+gb271b02.d20230525
% Created with ARMI 0.2.5


plot 3 3000 3000 0.1 -4.95 60 -4.95 60

surf 1 inf
cell inf00 inf00 void -1
cell 1 2 m0 -1

% Reactor pressure vessel
surf 2 cylz 0 0 59.365 0.0 125.0
surf 3 cylz 0 0 60.0 0.0 125.0
cell 2 1 m1 2 -3

% <axial refelector B0015-000 at 000-000-000 XS: A BU GP: A>
surf 4 cylz 0 0 3.175
surf 5 cylz 0 0 3.2
surf 6 cylz 0 0 3.4
surf 7 cylz 0 0 3.7
pin 4p1
m2 0.1
m3
surf 8 cylz 0 0 0.125
cell 3 4 fill 4p1 -8
surf 9 cylz 0 0.525 0.125
cell 4 4 fill 4p1 -9
trans F 4 0 0.525 0.0
surf 10 cylz -0.45466334 0.2625 0.125
cell 5 4 fill 4p1 -10
trans F 5 -0.45466334 0.2625 0.0
surf 11 cylz -0.45466334 -0.2625 0.125
cell 6 4 fill 4p1 -11
trans F 6 -0.45466334 -0.2625 0.0
surf 12 cylz 0 -0.525 0.125
cell 7 4 fill 4p1 -12
trans F 7 0 -0.525 0.0
surf 13 cylz 0.45466334 -0.2625 0.125
cell 8 4 fill 4p1 -13
trans F 8 0.45466334 -0.2625 0.0
surf 14 cylz 0.45466334 0.2625 0.125
cell 9 4 fill 4p1 -14
trans F 9 0.45466334 0.2625 0.0
surf 15 cylz 0 1.05 0.125
cell 10 4 fill 4p1 -15
trans F 10 0 1.05 0.0
surf 16 cylz -0.525 0.90932667 0.125
cell 11 4 fill 4p1 -16
trans F 11 -0.525 0.90932667 0.0
surf 17 cylz -0.90932667 0.525 0.125
cell 12 4 fill 4p1 -17
trans F 12 -0.90932667 0.525 0.0
surf 18 cylz -1.05 0 0.125
cell 13 4 fill 4p1 -18
trans F 13 -1.05 0 0.0
surf 19 cylz -0.90932667 -0.525 0.125
cell 14 4 fill 4p1 -19
trans F 14 -0.90932667 -0.525 0.0
surf 20 cylz -0.525 -0.90932667 0.125
cell 15 4 fill 4p1 -20
trans F 15 -0.525 -0.90932667 0.0
surf 21 cylz 0 -1.05 0.125
cell 16 4 fill 4p1 -21
trans F 16 0 -1.05 0.0
surf 22 cylz 0.525 -0.90932667 0.125
cell 17 4 fill 4p1 -22
trans F 17 0.525 -0.90932667 0.0
surf 23 cylz 0.90932667 -0.525 0.125
cell 18 4 fill 4p1 -23
trans F 18 0.90932667 -0.525 0.0
surf 24 cylz 1.05 0 0.125
cell 19 4 fill 4p1 -24
trans F 19 1.05 0 0.0
surf 25 cylz 0.90932667 0.525 0.125
cell 20 4 fill 4p1 -25
trans F 20 0.90932667 0.525 0.0
surf 26 cylz 0.525 0.90932667 0.125
cell 21 4 fill 4p1 -26
trans F 21 0.525 0.90932667 0.0
surf 27 cylz 0 1.575 0.125
cell 22 4 fill 4p1 -27
trans F 22 0 1.575 0.0
surf 28 cylz -0.53868173 1.4800159 0.125
cell 23 4 fill 4p1 -28
trans F 23 -0.53868173 1.4800159 0.0
surf 29 cylz -1.0123905 1.20652 0.125
cell 24 4 fill 4p1 -29
trans F 24 -1.0123905 1.20652 0.0
surf 30 cylz -1.36399 0.7875 0.125
cell 25 4 fill 4p1 -30
trans F 25 -1.36399 0.7875 0.0
surf 31 cylz -1.5510722 0.27349588 0.125
cell 26 4 fill 4p1 -31
trans F 26 -1.5510722 0.27349588 0.0
surf 32 cylz -1.5510722 -0.27349588 0.125
cell 27 4 fill 4p1 -32
trans F 27 -1.5510722 -0.27349588 0.0
surf 33 cylz -1.36399 -0.7875 0.125
cell 28 4 fill 4p1 -33
trans F 28 -1.36399 -0.7875 0.0
surf 34 cylz -1.0123905 -1.20652 0.125
cell 29 4 fill 4p1 -34
trans F 29 -1.0123905 -1.20652 0.0
surf 35 cylz -0.53868173 -1.4800159 0.125
cell 30 4 fill 4p1 -35
trans F 30 -0.53868173 -1.4800159 0.0
surf 36 cylz 0 -1.575 0.125
cell 31 4 fill 4p1 -36
trans F 31 0 -1.575 0.0
surf 37 cylz 0.53868173 -1.4800159 0.125
cell 32 4 fill 4p1 -37
trans F 32 0.53868173 -1.4800159 0.0
surf 38 cylz 1.0123905 -1.20652 0.125
cell 33 4 fill 4p1 -38
trans F 33 1.0123905 -1.20652 0.0
surf 39 cylz 1.36399 -0.7875 0.125
cell 34 4 fill 4p1 -39
trans F 34 1.36399 -0.7875 0.0
surf 40 cylz 1.5510722 -0.27349588 0.125
cell 35 4 fill 4p1 -40
trans F 35 1.5510722 -0.27349588 0.0
surf 41 cylz 1.5510722 0.27349588 0.125
cell 36 4 fill 4p1 -41
trans F 36 1.5510722 0.27349588 0.0
surf 42 cylz 1.36399 0.7875 0.125
cell 37 4 fill 4p1 -42
trans F 37 1.36399 0.7875 0.0
surf 43 cylz 1.0123905 1.20652 0.125
cell 38 4 fill 4p1 -43
trans F 38 1.0123905 1.20652 0.0
surf 44 cylz 0.53868173 1.4800159 0.125
cell 39 4 fill 4p1 -44
trans F 39 0.53868173 1.4800159 0.0
surf 45 cylz 0 2.1 0.125
cell 40 4 fill 4p1 -45
trans F 40 0 2.1 0.0
surf 46 cylz -0.54351999 2.0284442 0.125
cell 41 4 fill 4p1 -46
trans F 41 -0.54351999 2.0284442 0.0
surf 47 cylz -1.05 1.8186533 0.125
cell 42 4 fill 4p1 -47
trans F 42 -1.05 1.8186533 0.0
surf 48 cylz -1.4849242 1.4849242 0.125
cell 43 4 fill 4p1 -48
trans F 43 -1.4849242 1.4849242 0.0
surf 49 cylz -1.8186533 1.05 0.125
cell 44 4 fill 4p1 -49
trans F 44 -1.8186533 1.05 0.0
surf 50 cylz -2.0284442 0.54351999 0.125
cell 45 4 fill 4p1 -50
trans F 45 -2.0284442 0.54351999 0.0
surf 51 cylz -2.1 0 0.125
cell 46 4 fill 4p1 -51
trans F 46 -2.1 0 0.0
surf 52 cylz -2.0284442 -0.54351999 0.125
cell 47 4 fill 4p1 -52
trans F 47 -2.0284442 -0.54351999 0.0
surf 53 cylz -1.8186533 -1.05 0.125
cell 48 4 fill 4p1 -53
trans F 48 -1.8186533 -1.05 0.0
surf 54 cylz -1.4849242 -1.4849242 0.125
cell 49 4 fill 4p1 -54
trans F 49 -1.4849242 -1.4849242 0.0
surf 55 cylz -1.05 -1.8186533 0.125
cell 50 4 fill 4p1 -55
trans F 50 -1.05 -1.8186533 0.0
surf 56 cylz -0.54351999 -2.0284442 0.125
cell 51 4 fill 4p1 -56
trans F 51 -0.54351999 -2.0284442 0.0
surf 57 cylz 0 -2.1 0.125
cell 52 4 fill 4p1 -57
trans F 52 0 -2.1 0.0
surf 58 cylz 0.54351999 -2.0284442 0.125
cell 53 4 fill 4p1 -58
trans F 53 0.54351999 -2.0284442 0.0
surf 59 cylz 1.05 -1.8186533 0.125
cell 54 4 fill 4p1 -59
trans F 54 1.05 -1.8186533 0.0
surf 60 cylz 1.4849242 -1.4849242 0.125
cell 55 4 fill 4p1 -60
trans F 55 1.4849242 -1.4849242 0.0
surf 61 cylz 1.8186533 -1.05 0.125
cell 56 4 fill 4p1 -61
trans F 56 1.8186533 -1.05 0.0
surf 62 cylz 2.0284442 -0.54351999 0.125
cell 57 4 fill 4p1 -62
trans F 57 2.0284442 -0.54351999 0.0
surf 63 cylz 2.1 0 0.125
cell 58 4 fill 4p1 -63
trans F 58 2.1 0 0.0
surf 64 cylz 2.0284442 0.54351999 0.125
cell 59 4 fill 4p1 -64
trans F 59 2.0284442 0.54351999 0.0
surf 65 cylz 1.8186533 1.05 0.125
cell 60 4 fill 4p1 -65
trans F 60 1.8186533 1.05 0.0
surf 66 cylz 1.4849242 1.4849242 0.125
cell 61 4 fill 4p1 -66
trans F 61 1.4849242 1.4849242 0.0
surf 67 cylz 1.05 1.8186533 0.125
cell 62 4 fill 4p1 -67
trans F 62 1.05 1.8186533 0.0
surf 68 cylz 0.54351999 2.0284442 0.125
cell 63 4 fill 4p1 -68
trans F 63 0.54351999 2.0284442 0.0
surf 69 cylz 0 2.625 0.125
cell 64 4 fill 4p1 -69
trans F 64 0 2.625 0.0
surf 70 cylz -0.54576819 2.5676375 0.125
cell 65 4 fill 4p1 -70
trans F 65 -0.54576819 2.5676375 0.0
surf 71 cylz -1.0676837 2.3980568 0.125
cell 66 4 fill 4p1 -71
trans F 66 -1.0676837 2.3980568 0.0
surf 72 cylz -1.5429363 2.1236696 0.125
cell 67 4 fill 4p1 -72
trans F 67 -1.5429363 2.1236696 0.0
surf 73 cylz -1.9507552 1.7564678 0.125
cell 68 4 fill 4p1 -73
trans F 68 -1.9507552 1.7564678 0.0
surf 74 cylz -2.2733167 1.3125 0.125
cell 69 4 fill 4p1 -74
trans F 69 -2.2733167 1.3125 0.0
surf 75 cylz -2.4965234 0.81116961 0.125
cell 70 4 fill 4p1 -75
trans F 70 -2.4965234 0.81116961 0.0
surf 76 cylz -2.61062 0.27438722 0.125
cell 71 4 fill 4p1 -76
trans F 71 -2.61062 0.27438722 0.0
surf 77 cylz -2.61062 -0.27438722 0.125
cell 72 4 fill 4p1 -77
trans F 72 -2.61062 -0.27438722 0.0
surf 78 cylz -2.4965234 -0.81116961 0.125
cell 73 4 fill 4p1 -78
trans F 73 -2.4965234 -0.81116961 0.0
surf 79 cylz -2.2733167 -1.3125 0.125
cell 74 4 fill 4p1 -79
trans F 74 -2.2733167 -1.3125 0.0
surf 80 cylz -1.9507552 -1.7564678 0.125
cell 75 4 fill 4p1 -80
trans F 75 -1.9507552 -1.7564678 0.0
surf 81 cylz -1.5429363 -2.1236696 0.125
cell 76 4 fill 4p1 -81
trans F 76 -1.5429363 -2.1236696 0.0
surf 82 cylz -1.0676837 -2.3980568 0.125
cell 77 4 fill 4p1 -82
trans F 77 -1.0676837 -2.3980568 0.0
surf 83 cylz -0.54576819 -2.5676375 0.125
cell 78 4 fill 4p1 -83
trans F 78 -0.54576819 -2.5676375 0.0
surf 84 cylz 0 -2.625 0.125
cell 79 4 fill 4p1 -84
trans F 79 0 -2.625 0.0
surf 85 cylz 0.54576819 -2.5676375 0.125
cell 80 4 fill 4p1 -85
trans F 80 0.54576819 -2.5676375 0.0
surf 86 cylz 1.0676837 -2.3980568 0.125
cell 81 4 fill 4p1 -86
trans F 81 1.0676837 -2.3980568 0.0
surf 87 cylz 1.5429363 -2.1236696 0.125
cell 82 4 fill 4p1 -87
trans F 82 1.5429363 -2.1236696 0.0
surf 88 cylz 1.9507552 -1.7564678 0.125
cell 83 4 fill 4p1 -88
trans F 83 1.9507552 -1.7564678 0.0
surf 89 cylz 2.2733167 -1.3125 0.125
cell 84 4 fill 4p1 -89
trans F 84 2.2733167 -1.3125 0.0
surf 90 cylz 2.4965234 -0.81116961 0.125
cell 85 4 fill 4p1 -90
trans F 85 2.4965234 -0.81116961 0.0
surf 91 cylz 2.61062 -0.27438722 0.125
cell 86 4 fill 4p1 -91
trans F 86 2.61062 -0.27438722 0.0
surf 92 cylz 2.61062 0.27438722 0.125
cell 87 4 fill 4p1 -92
trans F 87 2.61062 0.27438722 0.0
surf 93 cylz 2.4965234 0.81116961 0.125
cell 88 4 fill 4p1 -93
trans F 88 2.4965234 0.81116961 0.0
surf 94 cylz 2.2733167 1.3125 0.125
cell 89 4 fill 4p1 -94
trans F 89 2.2733167 1.3125 0.0
surf 95 cylz 1.9507552 1.7564678 0.125
cell 90 4 fill 4p1 -95
trans F 90 1.9507552 1.7564678 0.0
surf 96 cylz 1.5429363 2.1236696 0.125
cell 91 4 fill 4p1 -96
trans F 91 1.5429363 2.1236696 0.0
surf 97 cylz 1.0676837 2.3980568 0.125
cell 92 4 fill 4p1 -97
trans F 92 1.0676837 2.3980568 0.0
surf 98 cylz 0.54576819 2.5676375 0.125
cell 93 4 fill 4p1 -98
trans F 93 0.54576819 2.5676375 0.0
cell 94 4 m0 -4 8 9 10 11 12 13 14 15 16 17 18 19 20 21 22 23 24 25 26 27 28 29 30 31 32 33 34 35 36 37 38 39 40 41 42 43 44 45 46 47 48 49 50 51 52 53 54 55 56 57 58 59 60 61 62 63 64 65 66 67 68 69 70 71 72 73 74 75 76 77 78 79 80 81 82 83 84 85 86 87 88 89 90 91 92 93 94 95 96 97 98
cell 95 4 m3 4 -5 8 9 10 11 12 13 14 15 16 17 18 19 20 21 22 23 24 25 26 27 28 29 30 31 32 33 34 35 36 37 38 39 40 41 42 43 44 45 46 47 48 49 50 51 52 53 54 55 56 57 58 59 60 61 62 63 64 65 66 67 68 69 70 71 72 73 74 75 76 77 78 79 80 81 82 83 84 85 86 87 88 89 90 91 92 93 94 95 96 97 98
cell 96 4 m4 5 -6 8 9 10 11 12 13 14 15 16 17 18 19 20 21 22 23 24 25 26 27 28 29 30 31 32 33 34 35 36 37 38 39 40 41 42 43 44 45 46 47 48 49 50 51 52 53 54 55 56 57 58 59 60 61 62 63 64 65 66 67 68 69 70 71 72 73 74 75 76 77 78 79 80 81 82 83 84 85 86 87 88 89 90 91 92 93 94 95 96 97 98
cell 97 4 m2 6 -7 8 9 10 11 12 13 14 15 16 17 18 19 20 21 22 23 24 25 26 27 28 29 30 31 32 33 34 35 36 37 38 39 40 41 42 43 44 45 46 47 48 49 50 51 52 53 54 55 56 57 58 59 60 61 62 63 64 65 66 67 68 69 70 71 72 73 74 75 76 77 78 79 80 81 82 83 84 85 86 87 88 89 90 91 92 93 94 95 96 97 98
cell 98 4 void 8 9 10 11 12 13 14 15 16 17 18 19 20 21 22 23 24 25 26 27 28 29 30 31 32 33 34 35 36 37 38 39 40 41 42 43 44 45 46 47 48 49 50 51 52 53 54 55 56 57 58 59 60 61 62 63 64 65 66 67 68 69 70 71 72 73 74 75 76 77 78 79 80 81 82 83 84 85 86 87 88 89 90 91 92 93 94 95 96 97 98 4 ( -4 : 5 ) ( -5 : 6 ) ( -6 : 7 )
cell 99 3 fill 4 -1

% <fuel B0015-001 at 000-000-001 XS: A BU GP: A>
pin 6p1
m2 0.1
m3
cell 100 6 fill 6p1 -8
surf 99 cylz 0 0.55 0.125
cell 101 6 fill 6p1 -99
trans F 101 0 0.55 0.0
surf 100 cylz -0.47631397 0.275 0.125
cell 102 6 fill 6p1 -100
trans F 102 -0.47631397 0.275 0.0
surf 101 cylz -0.47631397 -0.275 0.125
cell 103 6 fill 6p1 -101
trans F 103 -0.47631397 -0.275 0.0
surf 102 cylz 0 -0.55 0.125
cell 104 6 fill 6p1 -102
trans F 104 0 -0.55 0.0
surf 103 cylz 0.47631397 -0.275 0.125
cell 105 6 fill 6p1 -103
trans F 105 0.47631397 -0.275 0.0
surf 104 cylz 0.47631397 0.275 0.125
cell 106 6 fill 6p1 -104
trans F 106 0.47631397 0.275 0.0
surf 105 cylz 0 1.1 0.125
cell 107 6 fill 6p1 -105
trans F 107 0 1.1 0.0
surf 106 cylz -0.55 0.95262794 0.125
cell 108 6 fill 6p1 -106
trans F 108 -0.55 0.95262794 0.0
surf 107 cylz -0.95262794 0.55 0.125
cell 109 6 fill 6p1 -107
trans F 109 -0.95262794 0.55 0.0
surf 108 cylz -1.1 0 0.125
cell 110 6 fill 6p1 -108
trans F 110 -1.1 0 0.0
surf 109 cylz -0.95262794 -0.55 0.125
cell 111 6 fill 6p1 -109
trans F 111 -0.95262794 -0.55 0.0
surf 110 cylz -0.55 -0.95262794 0.125
cell 112 6 fill 6p1 -110
trans F 112 -0.55 -0.95262794 0.0
surf 111 cylz 0 -1.1 0.125
cell 113 6 fill 6p1 -111
trans F 113 0 -1.1 0.0
surf 112 cylz 0.55 -0.95262794 0.125
cell 114 6 fill 6p1 -112
trans F 114 0.55 -0.95262794 0.0
surf 113 cylz 0.95262794 -0.55 0.125
cell 115 6 fill 6p1 -113
trans F 115 0.95262794 -0.55 0.0
surf 114 cylz 1.1 0 0.125
cell 116 6 fill 6p1 -114
trans F 116 1.1 0 0.0
surf 115 cylz 0.95262794 0.55 0.125
cell 117 6 fill 6p1 -115
trans F 117 0.95262794 0.55 0.0
surf 116 cylz 0.55 0.95262794 0.125
cell 118 6 fill 6p1 -116
trans F 118 0.55 0.95262794 0.0
surf 117 cylz 0 1.65 0.125
cell 119 6 fill 6p1 -117
trans F 119 0 1.65 0.0
surf 118 cylz -0.56433324 1.5504928 0.125
cell 120 6 fill 6p1 -118
trans F 120 -0.56433324 1.5504928 0.0
surf 119 cylz -1.0605996 1.2639733 0.125
cell 121 6 fill 6p1 -119
trans F 121 -1.0605996 1.2639733 0.0
surf 120 cylz -1.4289419 0.825 0.125
cell 122 6 fill 6p1 -120
trans F 122 -1.4289419 0.825 0.0
surf 121 cylz -1.6249328 0.28651949 0.125
cell 123 6 fill 6p1 -121
trans F 123 -1.6249328 0.28651949 0.0
surf 122 cylz -1.6249328 -0.28651949 0.125
cell 124 6 fill 6p1 -122
trans F 124 -1.6249328 -0.28651949 0.0
surf 123 cylz -1.4289419 -0.825 0.125
cell 125 6 fill 6p1 -123
trans F 125 -1.4289419 -0.825 0.0
surf 124 cylz -1.0605996 -1.2639733 0.125
cell 126 6 fill 6p1 -124
trans F 126 -1.0605996 -1.2639733 0.0
surf 125 cylz -0.56433324 -1.5504928 0.125
cell 127 6 fill 6p1 -125
trans F 127 -0.56433324 -1.5504928 0.0
surf 126 cylz 0 -1.65 0.125
cell 128 6 fill 6p1 -126
trans F 128 0 -1.65 0.0
surf 127 cylz 0.56433324 -1.5504928 0.125
cell 129 6 fill 6p1 -127
trans F 129 0.56433324 -1.5504928 0.0
surf 128 cylz 1.0605996 -1.2639733 0.125
cell 130 6 fill 6p1 -128
trans F 130 1.0605996 -1.2639733 0.0
surf 129 cylz 1.4289419 -0.825 0.125
cell 131 6 fill 6p1 -129
trans F 131 1.4289419 -0.825 0.0
surf 130 cylz 1.6249328 -0.28651949 0.125
cell 132 6 fill 6p1 -130
trans F 132 1.6249328 -0.28651949 0.0
surf 131 cylz 1.6249328 0.28651949 0.125
cell 133 6 fill 6p1 -131
trans F 133 1.6249328 0.28651949 0.0
surf 132 cylz 1.4289419 0.825 0.125
cell 134 6 fill 6p1 -132
trans F 134 1.4289419 0.825 0.0
surf 133 cylz 1.0605996 1.2639733 0.125
cell 135 6 fill 6p1 -133
trans F 135 1.0605996 1.2639733 0.0
surf 134 cylz 0.56433324 1.5504928 0.125
cell 136 6 fill 6p1 -134
trans F 136 0.56433324 1.5504928 0.0
surf 135 cylz 0 2.2 0.125
cell 137 6 fill 6p1 -135
trans F 137 0 2.2 0.0
surf 136 cylz -0.5694019 2.1250368 0.125
cell 138 6 fill 6p1 -136
trans F 138 -0.5694019 2.1250368 0.0
surf 137 cylz -1.1 1.9052559 0.125
cell 139 6 fill 6p1 -137
trans F 139 -1.1 1.9052559 0.0
surf 138 cylz -1.5556349 1.5556349 0.125
cell 140 6 fill 6p1 -138
trans F 140 -1.5556349 1.5556349 0.0
surf 139 cylz -1.9052559 1.1 0.125
cell 141 6 fill 6p1 -139
trans F 141 -1.9052559 1.1 0.0
surf 140 cylz -2.1250368 0.5694019 0.125
cell 142 6 fill 6p1 -140
trans F 142 -2.1250368 0.5694019 0.0
surf 141 cylz -2.2 0 0.125
cell 143 6 fill 6p1 -141
trans F 143 -2.2 0 0.0
surf 142 cylz -2.1250368 -0.5694019 0.125
cell 144 6 fill 6p1 -142
trans F 144 -2.1250368 -0.5694019 0.0
surf 143 cylz -1.9052559 -1.1 0.125
cell 145 6 fill 6p1 -143
trans F 145 -1.9052559 -1.1 0.0
surf 144 cylz -1.5556349 -1.5556349 0.125
cell 146 6 fill 6p1 -144
trans F 146 -1.5556349 -1.5556349 0.0
surf 145 cylz -1.1 -1.9052559 0.125
cell 147 6 fill 6p1 -145
trans F 147 -1.1 -1.9052559 0.0
surf 146 cylz -0.5694019 -2.1250368 0.125
cell 148 6 fill 6p1 -146
trans F 148 -0.5694019 -2.1250368 0.0
surf 147 cylz 0 -2.2 0.125
cell 149 6 fill 6p1 -147
trans F 149 0 -2.2 0.0
surf 148 cylz 0.5694019 -2.1250368 0.125
cell 150 6 fill 6p1 -148
trans F 150 0.5694019 -2.1250368 0.0
surf 149 cylz 1.1 -1.9052559 0.125
cell 151 6 fill 6p1 -149
trans F 151 1.1 -1.9052559 0.0
surf 150 cylz 1.5556349 -1.5556349 0.125
cell 152 6 fill 6p1 -150
trans F 152 1.5556349 -1.5556349 0.0
surf 151 cylz 1.9052559 -1.1 0.125
cell 153 6 fill 6p1 -151
trans F 153 1.9052559 -1.1 0.0
surf 152 cylz 2.1250368 -0.5694019 0.125
cell 154 6 fill 6p1 -152
trans F 154 2.1250368 -0.5694019 0.0
surf 153 cylz 2.2 0 0.125
cell 155 6 fill 6p1 -153
trans F 155 2.2 0 0.0
surf 154 cylz 2.1250368 0.5694019 0.125
cell 156 6 fill 6p1 -154
trans F 156 2.1250368 0.5694019 0.0
surf 155 cylz 1.9052559 1.1 0.125
cell 157 6 fill 6p1 -155
trans F 157 1.9052559 1.1 0.0
surf 156 cylz 1.5556349 1.5556349 0.125
cell 158 6 fill 6p1 -156
trans F 158 1.5556349 1.5556349 0.0
surf 157 cylz 1.1 1.9052559 0.125
cell 159 6 fill 6p1 -157
trans F 159 1.1 1.9052559 0.0
surf 158 cylz 0.5694019 2.1250368 0.125
cell 160 6 fill 6p1 -158
trans F 160 0.5694019 2.1250368 0.0
surf 159 cylz 0 2.75 0.125
cell 161 6 fill 6p1 -159
trans F 161 0 2.75 0.0
surf 160 cylz -0.57175715 2.6899059 0.125
cell 162 6 fill 6p1 -160
trans F 162 -0.57175715 2.6899059 0.0
surf 161 cylz -1.1185258 2.51225 0.125
cell 163 6 fill 6p1 -161
trans F 163 -1.1185258 2.51225 0.0
surf 162 cylz -1.6164094 2.2247967 0.125
cell 164 6 fill 6p1 -162
trans F 164 -1.6164094 2.2247967 0.0
surf 163 cylz -2.0436483 1.8401092 0.125
cell 165 6 fill 6p1 -163
trans F 165 -2.0436483 1.8401092 0.0
surf 164 cylz -2.3815699 1.375 0.125
cell 166 6 fill 6p1 -164
trans F 166 -2.3815699 1.375 0.0
surf 165 cylz -2.6154054 0.84979673 0.125
cell 167 6 fill 6p1 -165
trans F 167 -2.6154054 0.84979673 0.0
surf 166 cylz -2.7349352 0.28745327 0.125
cell 168 6 fill 6p1 -166
trans F 168 -2.7349352 0.28745327 0.0
surf 167 cylz -2.7349352 -0.28745327 0.125
cell 169 6 fill 6p1 -167
trans F 169 -2.7349352 -0.28745327 0.0
surf 168 cylz -2.6154054 -0.84979673 0.125
cell 170 6 fill 6p1 -168
trans F 170 -2.6154054 -0.84979673 0.0
surf 169 cylz -2.3815699 -1.375 0.125
cell 171 6 fill 6p1 -169
trans F 171 -2.3815699 -1.375 0.0
surf 170 cylz -2.0436483 -1.8401092 0.125
cell 172 6 fill 6p1 -170
trans F 172 -2.0436483 -1.8401092 0.0
surf 171 cylz -1.6164094 -2.2247967 0.125
cell 173 6 fill 6p1 -171
trans F 173 -1.6164094 -2.2247967 0.0
surf 172 cylz -1.1185258 -2.51225 0.125
cell 174 6 fill 6p1 -172
trans F 174 -1.1185258 -2.51225 0.0
surf 173 cylz -0.57175715 -2.6899059 0.125
cell 175 6 fill 6p1 -173
trans F 175 -0.57175715 -2.6899059 0.0
surf 174 cylz 0 -2.75 0.125
cell 176 6 fill 6p1 -174
trans F 176 0 -2.75 0.0
surf 175 cylz 0.57175715 -2.6899059 0.125
cell 177 6 fill 6p1 -175
trans F 177 0.57175715 -2.6899059 0.0
surf 176 cylz 1.1185258 -2.51225 0.125
cell 178 6 fill 6p1 -176
trans F 178 1.1185258 -2.51225 0.0
surf 177 cylz 1.6164094 -2.2247967 0.125
cell 179 6 fill 6p1 -177
trans F 179 1.6164094 -2.2247967 0.0
surf 178 cylz 2.0436483 -1.8401092 0.125
cell 180 6 fill 6p1 -178
trans F 180 2.0436483 -1.8401092 0.0
surf 179 cylz 2.3815699 -1.375 0.125
cell 181 6 fill 6p1 -179
trans F 181 2.3815699 -1.375 0.0
surf 180 cylz 2.6154054 -0.84979673 0.125
cell 182 6 fill 6p1 -180
trans F 182 2.6154054 -0.84979673 0.0
surf 181 cylz 2.7349352 -0.28745327 0.125
cell 183 6 fill 6p1 -181
trans F 183 2.7349352 -0.28745327 0.0
surf 182 cylz 2.7349352 0.28745327 0.125
cell 184 6 fill 6p1 -182
trans F 184 2.7349352 0.28745327 0.0
surf 183 cylz 2.6154054 0.84979673 0.125
cell 185 6 fill 6p1 -183
trans F 185 2.6154054 0.84979673 0.0
surf 184 cylz 2.3815699 1.375 0.125
cell 186 6 fill 6p1 -184
trans F 186 2.3815699 1.375 0.0
surf 185 cylz 2.0436483 1.8401092 0.125
cell 187 6 fill 6p1 -185
trans F 187 2.0436483 1.8401092 0.0
surf 186 cylz 1.6164094 2.2247967 0.125
cell 188 6 fill 6p1 -186
trans F 188 1.6164094 2.2247967 0.0
surf 187 cylz 1.1185258 2.51225 0.125
cell 189 6 fill 6p1 -187
trans F 189 1.1185258 2.51225 0.0
surf 188 cylz 0.57175715 2.6899059 0.125
cell 190 6 fill 6p1 -188
trans F 190 0.57175715 2.6899059 0.0
cell 191 6 m5 -4 8 99 100 101 102 103 104 105 106 107 108 109 110 111 112 113 114 115 116 117 118 119 120 121 122 123 124 125 126 127 128 129 130 131 132 133 134 135 136 137 138 139 140 141 142 143 144 145 146 147 148 149 150 151 152 153 154 155 156 157 158 159 160 161 162 163 164 165 166 167 168 169 170 171 172 173 174 175 176 177 178 179 180 181 182 183 184 185 186 187 188
cell 192 6 m3 4 -5 8 99 100 101 102 103 104 105 106 107 108 109 110 111 112 113 114 115 116 117 118 119 120 121 122 123 124 125 126 127 128 129 130 131 132 133 134 135 136 137 138 139 140 141 142 143 144 145 146 147 148 149 150 151 152 153 154 155 156 157 158 159 160 161 162 163 164 165 166 167 168 169 170 171 172 173 174 175 176 177 178 179 180 181 182 183 184 185 186 187 188
cell 193 6 m4 5 -6 8 99 100 101 102 103 104 105 106 107 108 109 110 111 112 113 114 115 116 117 118 119 120 121 122 123 124 125 126 127 128 129 130 131 132 133 134 135 136 137 138 139 140 141 142 143 144 145 146 147 148 149 150 151 152 153 154 155 156 157 158 159 160 161 162 163 164 165 166 167 168 169 170 171 172 173 174 175 176 177 178 179 180 181 182 183 184 185 186 187 188
cell 194 6 m2 6 -7 8 99 100 101 102 103 104 105 106 107 108 109 110 111 112 113 114 115 116 117 118 119 120 121 122 123 124 125 126 127 128 129 130 131 132 133 134 135 136 137 138 139 140 141 142 143 144 145 146 147 148 149 150 151 152 153 154 155 156 157 158 159 160 161 162 163 164 165 166 167 168 169 170 171 172 173 174 175 176 177 178 179 180 181 182 183 184 185 186 187 188
cell 195 6 void 8 99 100 101 102 103 104 105 106 107 108 109 110 111 112 113 114 115 116 117 118 119 120 121 122 123 124 125 126 127 128 129 130 131 132 133 134 135 136 137 138 139 140 141 142 143 144 145 146 147 148 149 150 151 152 153 154 155 156 157 158 159 160 161 162 163 164 165 166 167 168 169 170 171 172 173 174 175 176 177 178 179 180 181 182 183 184 185 186 187 188 4 ( -4 : 5 ) ( -5 : 6 ) ( -6 : 7 )
cell 196 5 fill 6 -1

% Assembly A0015
lat 7 9 0.0 0.0 2
0 3
15 5
cell 197 8 fill 4 -1
cell 198 9 fill 6 -1

% Assembly A0016
lat 10 9 0.0 0.0 2
0 8
15 9
cell 199 11 fill 4 -1
cell 200 12 fill 6 -1

% Assembly A0017
lat 13 9 0.0 0.0 2
0 11
15 12
cell 201 14 fill 4 -1
cell 202 15 fill 6 -1

% Assembly A0018
lat 16 9 0.0 0.0 2
0 14
15 15
cell 203 17 fill 4 -1
cell 204 18 fill 6 -1

% Assembly A0019
lat 19 9 0.0 0.0 2
0 17
15 18
cell 205 20 fill 4 -1
cell 206 21 fill 6 -1

% Assembly A0020
lat 22 9 0.0 0.0 2
0 20
15 21
cell 207 23 fill 4 -1
cell 208 24 fill 6 -1

% Assembly A0021
lat 25 9 0.0 0.0 2
0 23
15 24
cell 209 26 fill 4 -1
cell 210 27 fill 6 -1

% Assembly A0022
lat 28 9 0.0 0.0 2
0 26
15 27
cell 211 29 fill 4 -1
cell 212 30 fill 6 -1

% Assembly A0023
lat 31 9 0.0 0.0 2
0 29
15 30
cell 213 32 fill 4 -1
cell 214 33 fill 6 -1

% Assembly A0024
lat 34 9 0.0 0.0 2
0 32
15 33
cell 215 35 fill 4 -1
cell 216 36 fill 6 -1

% Assembly A0025
lat 37 9 0.0 0.0 2
0 35
15 36
cell 217 38 fill 4 -1
cell 218 39 fill 6 -1

% Assembly A0026
lat 40 9 0.0 0.0 2
0 38
15 39
cell 219 41 fill 4 -1
cell 220 42 fill 6 -1

% Assembly A0027
lat 43 9 0.0 0.0 2
0 41
15 42
cell 221 44 fill 4 -1
cell 222 45 fill 6 -1

% Assembly A0028
lat 46 9 0.0 0.0 2
0 44
15 45
cell 223 47 fill 4 -1
cell 224 48 fill 6 -1

% Assembly A0029
lat 49 9 0.0 0.0 2
0 47
15 48
cell 225 50 fill 4 -1
cell 226 51 fill 6 -1

% Assembly A0030
lat 52 9 0.0 0.0 2
0 50
15 51
cell 227 53 fill 4 -1
cell 228 54 fill 6 -1

% Assembly A0031
lat 55 9 0.0 0.0 2
0 53
15 54
cell 229 56 fill 4 -1
cell 230 57 fill 6 -1

% Assembly A0032
lat 58 9 0.0 0.0 2
0 56
15 57
cell 231 59 fill 4 -1
cell 232 60 fill 6 -1

% Assembly A0033
lat 61 9 0.0 0.0 2
0 59
15 60
cell 233 62 fill 4 -1
cell 234 63 fill 6 -1

% Assembly A0034
lat 64 9 0.0 0.0 2
0 62
15 63
cell 235 65 fill 4 -1
cell 236 66 fill 6 -1

% Assembly A0035
lat 67 9 0.0 0.0 2
0 65
15 66
cell 237 68 fill 4 -1
cell 238 69 fill 6 -1

% Assembly A0036
lat 70 9 0.0 0.0 2
0 68
15 69
cell 239 71 fill 4 -1
cell 240 72 fill 6 -1

% Assembly A0037
lat 73 9 0.0 0.0 2
0 71
15 72
cell 241 74 fill 4 -1
cell 242 75 fill 6 -1

% Assembly A0038
lat 76 9 0.0 0.0 2
0 74
15 75
cell 243 77 fill 4 -1
cell 244 78 fill 6 -1

% Assembly A0039
lat 79 9 0.0 0.0 2
0 77
15 78
cell 245 80 fill 4 -1
cell 246 81 fill 6 -1

% Assembly A0040
lat 82 9 0.0 0.0 2
0 80
15 81
cell 247 83 fill 4 -1
cell 248 84 fill 6 -1

% Assembly A0041
lat 85 9 0.0 0.0 2
0 83
15 84
cell 249 86 fill 4 -1
cell 250 87 fill 6 -1

% Assembly A0042
lat 88 9 0.0 0.0 2
0 86
15 87
cell 251 89 fill 4 -1
cell 252 90 fill 6 -1

% Assembly A0043
lat 91 9 0.0 0.0 2
0 89
15 90
cell 253 92 fill 4 -1
cell 254 93 fill 6 -1

% Assembly A0044
lat 94 9 0.0 0.0 2
0 92
15 93
cell 255 95 fill 4 -1
cell 256 96 fill 6 -1

% Assembly A0045
lat 97 9 0.0 0.0 2
0 95
15 96
cell 257 98 fill 4 -1
cell 258 99 fill 6 -1

% Assembly A0046
lat 100 9 0.0 0.0 2
0 98
15 99
cell 259 101 fill 4 -1
cell 260 102 fill 6 -1

% Assembly A0047
lat 103 9 0.0 0.0 2
0 101
15 102
cell 261 104 fill 4 -1
cell 262 105 fill 6 -1

% Assembly A0048
lat 106 9 0.0 0.0 2
0 104
15 105
cell 263 107 fill 4 -1
cell 264 108 fill 6 -1

% Assembly A0049
lat 109 9 0.0 0.0 2
0 107
15 108
cell 265 110 fill 4 -1
cell 266 111 fill 6 -1

% Assembly A0050
lat 112 9 0.0 0.0 2
0 110
15 111
cell 267 113 fill 4 -1
cell 268 114 fill 6 -1

% Assembly A0051
lat 115 9 0.0 0.0 2
0 113
15 114
cell 269 116 fill 4 -1
cell 270 117 fill 6 -1

% Assembly A0052
lat 118 9 0.0 0.0 2
0 116
15 117
cell 271 119 fill 4 -1
cell 272 120 fill 6 -1

% Assembly A0053
lat 121 9 0.0 0.0 2
0 119
15 120
cell 273 122 fill 4 -1
cell 274 123 fill 6 -1

% Assembly A0054
lat 124 9 0.0 0.0 2
0 122
15 123
cell 275 125 fill 4 -1
cell 276 126 fill 6 -1

% Assembly A0055
lat 127 9 0.0 0.0 2
0 125
15 126
cell 277 128 fill 4 -1
cell 278 129 fill 6 -1

% Assembly A0056
lat 130 9 0.0 0.0 2
0 128
15 129
cell 279 131 fill 4 -1
cell 280 132 fill 6 -1

% Assembly A0057
lat 133 9 0.0 0.0 2
0 131
15 132
cell 281 134 fill 4 -1
cell 282 135 fill 6 -1

% Assembly A0058
lat 136 9 0.0 0.0 2
0 134
15 135
cell 283 137 fill 4 -1
cell 284 138 fill 6 -1

% Assembly A0059
lat 139 9 0.0 0.0 2
0 137
15 138
cell 285 140 fill 4 -1
cell 286 141 fill 6 -1

% Assembly A0060
lat 142 9 0.0 0.0 2
0 140
15 141
cell 287 143 fill 4 -1
cell 288 144 fill 6 -1

% Assembly A0061
lat 145 9 0.0 0.0 2
0 143
15 144
cell 289 146 fill 4 -1
cell 290 147 fill 6 -1

% Assembly A0062
lat 148 9 0.0 0.0 2
0 146
15 147
cell 291 149 fill 4 -1
cell 292 150 fill 6 -1

% Assembly A0063
lat 151 9 0.0 0.0 2
0 149
15 150
cell 293 152 fill 4 -1
cell 294 153 fill 6 -1

% Assembly A0064
lat 154 9 0.0 0.0 2
0 152
15 153
cell 295 155 fill 4 -1
cell 296 156 fill 6 -1

% Assembly A0065
lat 157 9 0.0 0.0 2
0 155
15 156
cell 297 158 fill 4 -1
cell 298 159 fill 6 -1

% Assembly A0066
lat 160 9 0.0 0.0 2
0 158
15 159
cell 299 161 fill 4 -1
cell 300 162 fill 6 -1

% Assembly A0067
lat 163 9 0.0 0.0 2
0 161
15 162
cell 301 164 fill 4 -1
cell 302 165 fill 6 -1

% Assembly A0068
lat 166 9 0.0 0.0 2
0 164
15 165
cell 303 167 fill 4 -1
cell 304 168 fill 6 -1

% Assembly A0069
lat 169 9 0.0 0.0 2
0 167
15 168
cell 305 170 fill 4 -1
cell 306 171 fill 6 -1

% Assembly A0070
lat 172 9 0.0 0.0 2
0 170
15 171
cell 307 173 fill 4 -1
cell 308 174 fill 6 -1

% Assembly A0071
lat 175 9 0.0 0.0 2
0 173
15 174
cell 309 176 fill 4 -1
cell 310 177 fill 6 -1

% Assembly A0072
lat 178 9 0.0 0.0 2
0 176
15 177
cell 311 179 fill 4 -1
cell 312 180 fill 6 -1

% Assembly A0073
lat 181 9 0.0 0.0 2
0 179
15 180
cell 313 182 fill 4 -1
cell 314 183 fill 6 -1

% Assembly A0074
lat 184 9 0.0 0.0 2
0 182
15 183
cell 315 185 fill 4 -1
cell 316 186 fill 6 -1

% Assembly A0075
lat 187 9 0.0 0.0 2
0 185
15 186

trans U 7 0 0 0.0
surf 189 cylz 0 0 3.7 0.0 125.0
cell 317 188 fill 7 -189

trans U 10 0 9.9 0.0
surf 190 cylz 0 9.9 3.7 0.0 125.0
cell 318 188 fill 10 -190

trans U 13 -8.5736515 4.95 0.0
surf 191 cylz -8.5736515 4.95 3.7 0.0 125.0
cell 319 188 fill 13 -191

trans U 16 -8.5736515 -4.95 0.0
surf 192 cylz -8.5736515 -4.95 3.7 0.0 125.0
cell 320 188 fill 16 -192

trans U 19 0 -9.9 0.0
surf 193 cylz 0 -9.9 3.7 0.0 125.0
cell 321 188 fill 19 -193

trans U 22 8.5736515 -4.95 0.0
surf 194 cylz 8.5736515 -4.95 3.7 0.0 125.0
cell 322 188 fill 22 -194

trans U 25 8.5736515 4.95 0.0
surf 195 cylz 8.5736515 4.95 3.7 0.0 125.0
cell 323 188 fill 25 -195

trans U 28 0 19.8 0.0
surf 196 cylz 0 19.8 3.7 0.0 125.0
cell 324 188 fill 28 -196

trans U 31 -9.9 17.147303 0.0
surf 197 cylz -9.9 17.147303 3.7 0.0 125.0
cell 325 188 fill 31 -197

trans U 34 -17.147303 9.9 0.0
surf 198 cylz -17.147303 9.9 3.7 0.0 125.0
cell 326 188 fill 34 -198

trans U 37 -19.8 0 0.0
surf 199 cylz -19.8 0 3.7 0.0 125.0
cell 327 188 fill 37 -199

trans U 40 -17.147303 -9.9 0.0
surf 200 cylz -17.147303 -9.9 3.7 0.0 125.0
cell 328 188 fill 40 -200

trans U 43 -9.9 -17.147303 0.0
surf 201 cylz -9.9 -17.147303 3.7 0.0 125.0
cell 329 188 fill 43 -201

trans U 46 0 -19.8 0.0
surf 202 cylz 0 -19.8 3.7 0.0 125.0
cell 330 188 fill 46 -202

trans U 49 9.9 -17.147303 0.0
surf 203 cylz 9.9 -17.147303 3.7 0.0 125.0
cell 331 188 fill 49 -203

trans U 52 17.147303 -9.9 0.0
surf 204 cylz 17.147303 -9.9 3.7 0.0 125.0
cell 332 188 fill 52 -204

trans U 55 19.8 0 0.0
surf 205 cylz 19.8 0 3.7 0.0 125.0
cell 333 188 fill 55 -205

trans U 58 17.147303 9.9 0.0
surf 206 cylz 17.147303 9.9 3.7 0.0 125.0
cell 334 188 fill 58 -206

trans U 61 9.9 17.147303 0.0
surf 207 cylz 9.9 17.147303 3.7 0.0 125.0
cell 335 188 fill 61 -207

trans U 64 0 29.7 0.0
surf 208 cylz 0 29.7 3.7 0.0 125.0
cell 336 188 fill 64 -208

trans U 67 -10.157998 27.908871 0.0
surf 209 cylz -10.157998 27.908871 3.7 0.0 125.0
cell 337 188 fill 67 -209

trans U 70 -19.090792 22.75152 0.0
surf 210 cylz -19.090792 22.75152 3.7 0.0 125.0
cell 338 188 fill 70 -210

trans U 73 -25.720954 14.85 0.0
surf 211 cylz -25.720954 14.85 3.7 0.0 125.0
cell 339 188 fill 73 -211

trans U 76 -29.24879 5.1573509 0.0
surf 212 cylz -29.24879 5.1573509 3.7 0.0 125.0
cell 340 188 fill 76 -212

trans U 79 -29.24879 -5.1573509 0.0
surf 213 cylz -29.24879 -5.1573509 3.7 0.0 125.0
cell 341 188 fill 79 -213

trans U 82 -25.720954 -14.85 0.0
surf 214 cylz -25.720954 -14.85 3.7 0.0 125.0
cell 342 188 fill 82 -214

trans U 85 -19.090792 -22.75152 0.0
surf 215 cylz -19.090792 -22.75152 3.7 0.0 125.0
cell 343 188 fill 85 -215

trans U 88 -10.157998 -27.908871 0.0
surf 216 cylz -10.157998 -27.908871 3.7 0.0 125.0
cell 344 188 fill 88 -216

trans U 91 0 -29.7 0.0
surf 217 cylz 0 -29.7 3.7 0.0 125.0
cell 345 188 fill 91 -217

trans U 94 10.157998 -27.908871 0.0
surf 218 cylz 10.157998 -27.908871 3.7 0.0 125.0
cell 346 188 fill 94 -218

trans U 97 19.090792 -22.75152 0.0
surf 219 cylz 19.090792 -22.75152 3.7 0.0 125.0
cell 347 188 fill 97 -219

trans U 100 25.720954 -14.85 0.0
surf 220 cylz 25.720954 -14.85 3.7 0.0 125.0
cell 348 188 fill 100 -220

trans U 103 29.24879 -5.1573509 0.0
surf 221 cylz 29.24879 -5.1573509 3.7 0.0 125.0
cell 349 188 fill 103 -221

trans U 106 29.24879 5.1573509 0.0
surf 222 cylz 29.24879 5.1573509 3.7 0.0 125.0
cell 350 188 fill 106 -222

trans U 109 25.720954 14.85 0.0
surf 223 cylz 25.720954 14.85 3.7 0.0 125.0
cell 351 188 fill 109 -223

trans U 112 19.090792 22.75152 0.0
surf 224 cylz 19.090792 22.75152 3.7 0.0 125.0
cell 352 188 fill 112 -224

trans U 115 10.157998 27.908871 0.0
surf 225 cylz 10.157998 27.908871 3.7 0.0 125.0
cell 353 188 fill 115 -225

trans U 118 0 39.6 0.0
surf 226 cylz 0 39.6 3.7 0.0 125.0
cell 354 188 fill 118 -226

trans U 121 -10.249234 38.250663 0.0
surf 227 cylz -10.249234 38.250663 3.7 0.0 125.0
cell 355 188 fill 121 -227

trans U 124 -19.8 34.294606 0.0
surf 228 cylz -19.8 34.294606 3.7 0.0 125.0
cell 356 188 fill 124 -228

trans U 127 -28.001429 28.001429 0.0
surf 229 cylz -28.001429 28.001429 3.7 0.0 125.0
cell 357 188 fill 127 -229

trans U 130 -34.294606 19.8 0.0
surf 230 cylz -34.294606 19.8 3.7 0.0 125.0
cell 358 188 fill 130 -230

trans U 133 -38.250663 10.249234 0.0
surf 231 cylz -38.250663 10.249234 3.7 0.0 125.0
cell 359 188 fill 133 -231

trans U 136 -39.6 0 0.0
surf 232 cylz -39.6 0 3.7 0.0 125.0
cell 360 188 fill 136 -232

trans U 139 -38.250663 -10.249234 0.0
surf 233 cylz -38.250663 -10.249234 3.7 0.0 125.0
cell 361 188 fill 139 -233

trans U 142 -34.294606 -19.8 0.0
surf 234 cylz -34.294606 -19.8 3.7 0.0 125.0
cell 362 188 fill 142 -234

trans U 145 -28.001429 -28.001429 0.0
surf 235 cylz -28.001429 -28.001429 3.7 0.0 125.0
cell 363 188 fill 145 -235

trans U 148 -19.8 -34.294606 0.0
surf 236 cylz -19.8 -34.294606 3.7 0.0 125.0
cell 364 188 fill 148 -236

trans U 151 -10.249234 -38.250663 0.0
surf 237 cylz -10.249234 -38.250663 3.7 0.0 125.0
cell 365 188 fill 151 -237

trans U 154 0 -39.6 0.0
surf 238 cylz 0 -39.6 3.7 0.0 125.0
cell 366 188 fill 154 -238

trans U 157 10.249234 -38.250663 0.0
surf 239 cylz 10.249234 -38.250663 3.7 0.0 125.0
cell 367 188 fill 157 -239

trans U 160 19.8 -34.294606 0.0
surf 240 cylz 19.8 -34.294606 3.7 0.0 125.0
cell 368 188 fill 160 -240

trans U 163 28.001429 -28.001429 0.0
surf 241 cylz 28.001429 -28.001429 3.7 0.0 125.0
cell 369 188 fill 163 -241

trans U 166 34.294606 -19.8 0.0
surf 242 cylz 34.294606 -19.8 3.7 0.0 125.0
cell 370 188 fill 166 -242

trans U 169 38.250663 -10.249234 0.0
surf 243 cylz 38.250663 -10.249234 3.7 0.0 125.0
cell 371 188 fill 169 -243

trans U 172 39.6 0 0.0
surf 244 cylz 39.6 0 3.7 0.0 125.0
cell 372 188 fill 172 -244

trans U 175 38.250663 10.249234 0.0
surf 245 cylz 38.250663 10.249234 3.7 0.0 125.0
cell 373 188 fill 175 -245

trans U 178 34.294606 19.8 0.0
surf 246 cylz 34.294606 19.8 3.7 0.0 125.0
cell 374 188 fill 178 -246

trans U 181 28.001429 28.001429 0.0
surf 247 cylz 28.001429 28.001429 3.7 0.0 125.0
cell 375 188 fill 181 -247

trans U 184 19.8 34.294606 0.0
surf 248 cylz 19.8 34.294606 3.7 0.0 125.0
cell 376 188 fill 184 -248

trans U 187 10.249234 38.250663 0.0
surf 249 cylz 10.249234 38.250663 3.7 0.0 125.0
cell 377 188 fill 187 -249


% <drum0 B0076-000 at ExCore XS: D BU GP: A>
surf 250 cylz 0 0 6.425
surf 251 plane 0.00000000e+00 0.00000000e+00 0.00000000e+00 6.98489491e+00 -1.09640888e+01 0.00000000e+00 3.49244745e+00 -5.48204440e+00 -1.00000000e+00
surf 252 plane 0.00000000e+00 0.00000000e+00 0.00000000e+00 6.98489491e+00 1.09640888e+01 0.00000000e+00 3.49244745e+00 5.48204440e+00 -1.00000000e+00
surf 253 cylz 0 0 6.5
cell 378 190 m0 -250
cell 379 190 m0 ( 252 : -251 ) 250 -253
cell 380 190 m6 -252 251 250 -253
cell 381 190 void 250 ( ( -252 251 ) : -250 : 253 ) ( 252 : -251 : -250 : 253 )
cell 382 189 fill 190 -1

% Assembly A0076
lat 191 9 0.0 0.0 1
0 189

% <drum1 B0077-000 at ExCore XS: E BU GP: A>
surf 254 plane 0.00000000e+00 0.00000000e+00 0.00000000e+00 1.10503127e+01 -6.84767029e+00 0.00000000e+00 5.52515637e+00 -3.42383515e+00 -1.00000000e+00
surf 255 plane 0.00000000e+00 0.00000000e+00 0.00000000e+00 1.53603205e+00 1.29089351e+01 0.00000000e+00 7.68016025e-01 6.45446755e+00 -1.00000000e+00
cell 383 193 m0 -250
cell 384 193 m0 ( 255 : -254 ) 250 -253
cell 385 193 m6 -255 254 250 -253
cell 386 193 void 250 ( ( -255 254 ) : -250 : 253 ) ( 255 : -254 : -250 : 253 )
cell 387 192 fill 193 -1

% Assembly A0077
lat 194 9 0.0 0.0 1
0 192

% <drum2 B0078-000 at ExCore XS: F BU GP: A>
surf 256 plane 0.00000000e+00 0.00000000e+00 0.00000000e+00 1.29270805e+01 -1.37498682e+00 0.00000000e+00 6.46354027e+00 -6.87493408e-01 -1.00000000e+00
surf 257 plane 0.00000000e+00 0.00000000e+00 0.00000000e+00 -4.21705875e+00 1.22970084e+01 0.00000000e+00 -2.10852937e+00 6.14850420e+00 -1.00000000e+00
cell 388 196 m0 -250
cell 389 196 m0 ( 257 : -256 ) 250 -253
cell 390 196 m6 -257 256 250 -253
cell 391 196 void 250 ( ( -257 256 ) : -250 : 253 ) ( 257 : -256 : -250 : 253 )
cell 392 195 fill 196 -1

% Assembly A0078
lat 197 9 0.0 0.0 1
0 195

% <drum3 B0079-000 at ExCore XS: G BU GP: A>
surf 258 plane 0.00000000e+00 0.00000000e+00 0.00000000e+00 1.22434813e+01 4.37003034e+00 0.00000000e+00 6.12174066e+00 2.18501517e+00 -1.00000000e+00
surf 259 plane 0.00000000e+00 0.00000000e+00 0.00000000e+00 -9.13491132e+00 9.24950783e+00 0.00000000e+00 -4.56745566e+00 4.62475392e+00 -1.00000000e+00
cell 393 199 m0 -250
cell 394 199 m0 ( 259 : -258 ) 250 -253
cell 395 199 m6 -259 258 250 -253
cell 396 199 void 250 ( ( -259 258 ) : -250 : 253 ) ( 259 : -258 : -250 : 253 )
cell 397 198 fill 199 -1

% Assembly A0079
lat 200 9 0.0 0.0 1
0 198

% <drum4 B0080-000 at ExCore XS: H BU GP: A>
surf 260 plane 0.00000000e+00 0.00000000e+00 0.00000000e+00 9.13491132e+00 9.24950783e+00 0.00000000e+00 4.56745566e+00 4.62475392e+00 -1.00000000e+00
surf 261 plane 0.00000000e+00 0.00000000e+00 0.00000000e+00 -1.22434813e+01 4.37003034e+00 0.00000000e+00 -6.12174066e+00 2.18501517e+00 -1.00000000e+00
cell 398 202 m0 -250
cell 399 202 m0 ( 261 : -260 ) 250 -253
cell 400 202 m6 -261 260 250 -253
cell 401 202 void 250 ( ( -261 260 ) : -250 : 253 ) ( 261 : -260 : -250 : 253 )
cell 402 201 fill 202 -1

% Assembly A0080
lat 203 9 0.0 0.0 1
0 201

% <drum5 B0081-000 at ExCore XS: I BU GP: A>
surf 262 plane 0.00000000e+00 0.00000000e+00 0.00000000e+00 4.21705875e+00 1.22970084e+01 0.00000000e+00 2.10852937e+00 6.14850420e+00 -1.00000000e+00
surf 263 plane 0.00000000e+00 0.00000000e+00 0.00000000e+00 -1.29270805e+01 -1.37498713e+00 0.00000000e+00 -6.46354025e+00 -6.87493566e-01 -1.00000000e+00
cell 403 205 m0 -250
cell 404 205 m0 ( 263 : -262 ) 250 -253
cell 405 205 m6 -263 262 250 -253
cell 406 205 void 250 ( ( -263 262 ) : -250 : 253 ) ( 263 : -262 : -250 : 253 )
cell 407 204 fill 205 -1

% Assembly A0081
lat 206 9 0.0 0.0 1
0 204

% <drum6 B0082-000 at ExCore XS: J BU GP: A>
surf 264 plane 0.00000000e+00 0.00000000e+00 0.00000000e+00 -1.53603205e+00 1.29089351e+01 0.00000000e+00 -7.68016025e-01 6.45446755e+00 -1.00000000e+00
surf 265 plane 0.00000000e+00 0.00000000e+00 0.00000000e+00 -1.10503132e+01 -6.84766952e+00 0.00000000e+00 -5.52515661e+00 -3.42383476e+00 -1.00000000e+00
cell 408 208 m0 -250
cell 409 208 m0 ( 265 : -264 ) 250 -253
cell 410 208 m6 -265 264 250 -253
cell 411 208 void 250 ( ( -265 264 ) : -250 : 253 ) ( 265 : -264 : -250 : 253 )
cell 412 207 fill 208 -1

% Assembly A0082
lat 209 9 0.0 0.0 1
0 207

% <drum7 B0083-000 at ExCore XS: K BU GP: A>
surf 266 plane 0.00000000e+00 0.00000000e+00 0.00000000e+00 -6.98489491e+00 1.09640888e+01 0.00000000e+00 -3.49244745e+00 5.48204440e+00 -1.00000000e+00
surf 267 plane 0.00000000e+00 0.00000000e+00 0.00000000e+00 -6.98489491e+00 -1.09640888e+01 0.00000000e+00 -3.49244745e+00 -5.48204440e+00 -1.00000000e+00
cell 413 211 m0 -250
cell 414 211 m0 ( 267 : -266 ) 250 -253
cell 415 211 m6 -267 266 250 -253
cell 416 211 void 250 ( ( -267 266 ) : -250 : 253 ) ( 267 : -266 : -250 : 253 )
cell 417 210 fill 211 -1

% Assembly A0083
lat 212 9 0.0 0.0 1
0 210

% <drum8 B0084-000 at ExCore XS: L BU GP: A>
surf 268 plane 0.00000000e+00 0.00000000e+00 0.00000000e+00 -1.10503132e+01 6.84766952e+00 0.00000000e+00 -5.52515661e+00 3.42383476e+00 -1.00000000e+00
surf 269 plane 0.00000000e+00 0.00000000e+00 0.00000000e+00 -1.53603295e+00 -1.29089350e+01 0.00000000e+00 -7.68016476e-01 -6.45446750e+00 -1.00000000e+00
cell 418 214 m0 -250
cell 419 214 m0 ( 269 : -268 ) 250 -253
cell 420 214 m6 -269 268 250 -253
cell 421 214 void 250 ( ( -269 268 ) : -250 : 253 ) ( 269 : -268 : -250 : 253 )
cell 422 213 fill 214 -1

% Assembly A0084
lat 215 9 0.0 0.0 1
0 213

% <drum9 B0085-000 at ExCore XS: M BU GP: A>
surf 270 plane 0.00000000e+00 0.00000000e+00 0.00000000e+00 -1.29270805e+01 1.37498713e+00 0.00000000e+00 -6.46354025e+00 6.87493566e-01 -1.00000000e+00
surf 271 plane 0.00000000e+00 0.00000000e+00 0.00000000e+00 4.21705896e+00 -1.22970083e+01 0.00000000e+00 2.10852948e+00 -6.14850416e+00 -1.00000000e+00
cell 423 217 m0 -250
cell 424 217 m0 ( 271 : -270 ) 250 -253
cell 425 217 m6 -271 270 250 -253
cell 426 217 void 250 ( ( -271 270 ) : -250 : 253 ) ( 271 : -270 : -250 : 253 )
cell 427 216 fill 217 -1

% Assembly A0085
lat 218 9 0.0 0.0 1
0 216

% <drum10 B0086-000 at ExCore XS: N BU GP: A>
surf 272 plane 0.00000000e+00 0.00000000e+00 0.00000000e+00 -1.22434813e+01 -4.37003034e+00 0.00000000e+00 -6.12174066e+00 -2.18501517e+00 -1.00000000e+00
surf 273 plane 0.00000000e+00 0.00000000e+00 0.00000000e+00 9.13491084e+00 -9.24950831e+00 0.00000000e+00 4.56745542e+00 -4.62475416e+00 -1.00000000e+00
cell 428 220 m0 -250
cell 429 220 m0 ( 273 : -272 ) 250 -253
cell 430 220 m6 -273 272 250 -253
cell 431 220 void 250 ( ( -273 272 ) : -250 : 253 ) ( 273 : -272 : -250 : 253 )
cell 432 219 fill 220 -1

% Assembly A0086
lat 221 9 0.0 0.0 1
0 219

% <drum11 B0087-000 at ExCore XS: O BU GP: A>
surf 274 plane 0.00000000e+00 0.00000000e+00 0.00000000e+00 -9.13491132e+00 -9.24950783e+00 0.00000000e+00 -4.56745566e+00 -4.62475392e+00 -1.00000000e+00
surf 275 plane 0.00000000e+00 0.00000000e+00 0.00000000e+00 1.22434815e+01 -4.37002970e+00 0.00000000e+00 6.12174077e+00 -2.18501485e+00 -1.00000000e+00
cell 433 223 m0 -250
cell 434 223 m0 ( 275 : -274 ) 250 -253
cell 435 223 m6 -275 274 250 -253
cell 436 223 void 250 ( ( -275 274 ) : -250 : 253 ) ( 275 : -274 : -250 : 253 )
cell 437 222 fill 223 -1

% Assembly A0087
lat 224 9 0.0 0.0 1
0 222

% <drum12 B0088-000 at ExCore XS: P BU GP: A>
surf 276 plane 0.00000000e+00 0.00000000e+00 0.00000000e+00 -4.21705875e+00 -1.22970084e+01 0.00000000e+00 -2.10852937e+00 -6.14850420e+00 -1.00000000e+00
surf 277 plane 0.00000000e+00 0.00000000e+00 0.00000000e+00 1.29270805e+01 1.37498713e+00 0.00000000e+00 6.46354025e+00 6.87493566e-01 -1.00000000e+00
cell 438 226 m0 -250
cell 439 226 m0 ( 277 : -276 ) 250 -253
cell 440 226 m6 -277 276 250 -253
cell 441 226 void 250 ( ( -277 276 ) : -250 : 253 ) ( 277 : -276 : -250 : 253 )
cell 442 225 fill 226 -1

% Assembly A0088
lat 227 9 0.0 0.0 1
0 225

% <drum13 B0089-000 at ExCore XS: Q BU GP: A>
surf 278 plane 0.00000000e+00 0.00000000e+00 0.00000000e+00 1.53603295e+00 -1.29089350e+01 0.00000000e+00 7.68016476e-01 -6.45446750e+00 -1.00000000e+00
surf 279 plane 0.00000000e+00 0.00000000e+00 0.00000000e+00 1.10503132e+01 6.84766952e+00 0.00000000e+00 5.52515661e+00 3.42383476e+00 -1.00000000e+00
cell 443 229 m0 -250
cell 444 229 m0 ( 279 : -278 ) 250 -253
cell 445 229 m6 -279 278 250 -253
cell 446 229 void 250 ( ( -279 278 ) : -250 : 253 ) ( 279 : -278 : -250 : 253 )
cell 447 228 fill 229 -1

% Assembly A0089
lat 230 9 0.0 0.0 1
0 228

trans U 191 51.815 0 0.0
surf 280 cylz 51.815 0 6.5 0.0 125.0
cell 448 231 fill 191 -280

trans U 194 46.683702 22.481686 0.0
surf 281 cylz 46.683702 22.481686 6.5 0.0 125.0
cell 449 231 fill 194 -281

trans U 197 32.306124 40.510598 0.0
surf 282 cylz 32.306124 40.510598 6.5 0.0 125.0
cell 450 231 fill 197 -282

trans U 200 11.529922 50.51589 0.0
surf 283 cylz 11.529922 50.51589 6.5 0.0 125.0
cell 451 231 fill 200 -283

trans U 203 -11.529922 50.51589 0.0
surf 284 cylz -11.529922 50.51589 6.5 0.0 125.0
cell 452 231 fill 203 -284

trans U 206 -32.306124 40.510598 0.0
surf 285 cylz -32.306124 40.510598 6.5 0.0 125.0
cell 453 231 fill 206 -285

trans U 209 -46.683702 22.481686 0.0
surf 286 cylz -46.683702 22.481686 6.5 0.0 125.0
cell 454 231 fill 209 -286

trans U 212 -51.815 0 0.0
surf 287 cylz -51.815 0 6.5 0.0 125.0
cell 455 231 fill 212 -287

trans U 215 -46.683702 -22.481686 0.0
surf 288 cylz -46.683702 -22.481686 6.5 0.0 125.0
cell 456 231 fill 215 -288

trans U 218 -32.306124 -40.510598 0.0
surf 289 cylz -32.306124 -40.510598 6.5 0.0 125.0
cell 457 231 fill 218 -289

trans U 221 -11.529922 -50.51589 0.0
surf 290 cylz -11.529922 -50.51589 6.5 0.0 125.0
cell 458 231 fill 221 -290

trans U 224 11.529922 -50.51589 0.0
surf 291 cylz 11.529922 -50.51589 6.5 0.0 125.0
cell 459 231 fill 224 -291

trans U 227 32.306124 -40.510598 0.0
surf 292 cylz 32.306124 -40.510598 6.5 0.0 125.0
cell 460 231 fill 227 -292

trans U 230 46.683702 -22.481686 0.0
surf 293 cylz 46.683702 -22.481686 6.5 0.0 125.0
cell 461 231 fill 230 -293

cell 462 0 fill 1 2 -3

cell 463 0 m0 189 190 191 192 193 194 195 196 197 198 199 200 201 202 203 204 205 206 207 208 209 210 211 212 213 214 215 216 217 218 219 220 221 222 223 224 225 226 227 228 229 230 231 232 233 234 235 236 237 238 239 240 241 242 243 244 245 246 247 248 249 280 281 282 283 284 285 286 287 288 289 290 291 292 293 -2
cell 464 0 fill 188 ( -189 : -190 : -191 : -192 : -193 : -194 : -195 : -196 : -197 : -198 : -199 : -200 : -201 : -202 : -203 : -204 : -205 : -206 : -207 : -208 : -209 : -210 : -211 : -212 : -213 : -214 : -215 : -216 : -217 : -218 : -219 : -220 : -221 : -222 : -223 : -224 : -225 : -226 : -227 : -228 : -229 : -230 : -231 : -232 : -233 : -234 : -235 : -236 : -237 : -238 : -239 : -240 : -241 : -242 : -243 : -244 : -245 : -246 : -247 : -248 : -249 ) 280 281 282 283 284 285 286 287 288 289 290 291 292 293 -2
cell 465 0 fill 231 ( -280 : -281 : -282 : -283 : -284 : -285 : -286 : -287 : -288 : -289 : -290 : -291 : -292 : -293 ) -2

cell 466 0 outside 3
% Be-9
mat m0 -1.85 tmp 573.15
rgb 211 211 211
moder be-met_m0 4009
Be-9.00c 0.123621
% Stainless Steel 316
mat m1 -7.99 tmp 573.15
rgb 127 127 127
Mo-100.00c 0.000120755
C-12.00c 0.000162424
C-13.00c 1.82314e-06
Si-28.00c 0.00080112
Si-29.00c 4.06771e-05
Si-30.00c 2.6814e-05
P-31.00c 3.57299e-05
S-32.00c 2.13885e-05
S-33.00c 1.68821e-07
S-34.00c 9.4765e-07
S-36.00c 4.5019e-09
Cr-50.00c 0.000683542
Cr-52.00c 0.0131814
Cr-53.00c 0.00149467
Cr-54.00c 0.000372055
Fe-54.00c 0.00336917
Mn-55.00c 0.000888101
Fe-56.00c 0.0528888
Fe-57.00c 0.00122143
Fe-58.00c 0.00016255
Ni-58.00c 0.00669716
Ni-60.00c 0.00257972
Ni-61.00c 0.000112149
Ni-62.00c 0.000357499
Ni-64.00c 9.10964e-05
Mo-92.00c 0.000186085
Mo-94.00c 0.00011599
Mo-95.00c 0.000199628
Mo-96.00c 0.000209158
Mo-97.00c 0.000119751
Mo-98.00c 0.000302576
% Custom Material
mat m2 -0.002 tmp 573.15
rgb 31 119 180
H-1.00c 0.0011948
H-2.00c 1.37418e-07
% Custom Material
mat m3 -6.73 tmp 573.15
rgb 255 127 14
C-12.00c 0.0388357
C-13.00c 0.000420037
Hf-174.00c 3.21048e-09
Hf-176.00c 1.05544e-07
Hf-177.00c 3.73218e-07
Hf-178.00c 5.47386e-07
Hf-179.00c 2.73292e-07
Hf-180.00c 7.03897e-07
Zr-90.00c 0.0201971
Zr-91.00c 0.0044045
Zr-92.00c 0.00673236
Zr-94.00c 0.00682265
Zr-96.00c 0.00109916
% Custom Material
mat m4 -2.69219 tmp 573.15
rgb 23 190 207
C-12.00c 0.0112681
C-13.00c 0.000121872
Hf-174.00c 1.28428e-09
Hf-176.00c 4.22207e-08
Hf-177.00c 1.49298e-07
Hf-178.00c 2.1897e-07
Hf-179.00c 1.09324e-07
Hf-180.00c 2.81579e-07
Zr-90.00c 0.0083716
Zr-91.00c 0.00182564
Zr-92.00c 0.00279053
Zr-94.00c 0.00282796
Zr-96.00c 0.000455597
% Custom Material
mat m5 -5.458 tmp 2373.15
rgb 214 39 40
C-12.03c 0.0534221
C-13.03c 0.000577799
U-234.03c 1.83977e-06
U-235.03c 0.000137756
U-236.03c 3.22734e-06
U-238.03c 0.000554678
Zr-90.03c 0.013946
Zr-91.03c 0.00304128
Zr-92.03c 0.00464865
Zr-94.03c 0.00471099
Zr-96.03c 0.000758963
% B4C
mat m6 -2.52 tmp 573.15
rgb 44 160 44
B-10.00c 0.0217506
B-11.00c 0.088101
C-12.00c 0.0271581
C-13.00c 0.000304838
therm be-met_m0 be-met.42t
% Sets parameters for simulated neutron population in criticality source mode
set pop 10000 100 150

% Switches off the group constant generation
set gcu -1
set seed 123456789
% Vacuum boundary condition
set bc 1
% Max optimization at the cost of memory. Good for no burnup
set opti 4
set power 225000000.0

% Flux in all blocks
det block_flux
du 3 du 5 du 8 du 9 du 11 du 12 du 14 du 15 du 17 du 18 du 20 du 21 du 23 du 24 du 26 du 27 du 29 du 30 du 32 du 33 du 35 du 36 du 38 du 39 du 41 du 42 du 44 du 45 du 47 du 48 du 50 du 51 du 53 du 54 du 56 du 57 du 59 du 60 du 62 du 63 du 65 du 66 du 68 du 69 du 71 du 72 du 74 du 75 du 77 du 78 du 80 du 81 du 83 du 84 du 86 du 87 du 89 du 90 du 92 du 93 du 95 du 96 du 98 du 99 du 101 du 102 du 104 du 105 du 107 du 108 du 110 du 111 du 113 du 114 du 116 du 117 du 119 du 120 du 122 du 123 du 125 du 126 du 128 du 129 du 131 du 132 du 134 du 135 du 137 du 138 du 140 du 141 du 143 du 144 du 146 du 147 du 149 du 150 du 152 du 153 du 155 du 156 du 158 du 159 du 161 du 162 du 164 du 165 du 167 du 168 du 170 du 171 du 173 du 174 du 176 du 177 du 179 du 180 du 182 du 183 du 185 du 186 du 189 du 192 du 195 du 198 du 201 du 204 du 207 du 210 du 213 du 216 du 219 du 222 du 225 du 228

% Reaction rates
det block_rxnrates
du 3 du 5 du 8 du 9 du 11 du 12 du 14 du 15 du 17 du 18 du 20 du 21 du 23 du 24 du 26 du 27 du 29 du 30 du 32 du 33 du 35 du 36 du 38 du 39 du 41 du 42 du 44 du 45 du 47 du 48 du 50 du 51 du 53 du 54 du 56 du 57 du 59 du 60 du 62 du 63 du 65 du 66 du 68 du 69 du 71 du 72 du 74 du 75 du 77 du 78 du 80 du 81 du 83 du 84 du 86 du 87 du 89 du 90 du 92 du 93 du 95 du 96 du 98 du 99 du 101 du 102 du 104 du 105 du 107 du 108 du 110 du 111 du 113 du 114 du 116 du 117 du 119 du 120 du 122 du 123 du 125 du 126 du 128 du 129 du 131 du 132 du 134 du 135 du 137 du 138 du 140 du 141 du 143 du 144 du 146 du 147 du 149 du 150 du 152 du 153 du 155 du 156 du 158 du 159 du 161 du 162 du 164 du 165 du 167 du 168 du 170 du 171 du 173 du 174 du 176 du 177 du 179 du 180 du 182 du 183 du 185 du 186 du 189 du 192 du 195 du 198 du 201 du 204 du 207 du 210 du 213 du 216 du 219 du 222 du 225 du 228
% ['CAPTURE', 'FISSION', 'NU_SIGF', 'FISSION_POWER']
dr -2 void dr -6 void dr -7 void dr -8 void

% Total energy deposition tally
det block_power
du 3 du 5 du 8 du 9 du 11 du 12 du 14 du 15 du 17 du 18 du 20 du 21 du 23 du 24 du 26 du 27 du 29 du 30 du 32 du 33 du 35 du 36 du 38 du 39 du 41 du 42 du 44 du 45 du 47 du 48 du 50 du 51 du 53 du 54 du 56 du 57 du 59 du 60 du 62 du 63 du 65 du 66 du 68 du 69 du 71 du 72 du 74 du 75 du 77 du 78 du 80 du 81 du 83 du 84 du 86 du 87 du 89 du 90 du 92 du 93 du 95 du 96 du 98 du 99 du 101 du 102 du 104 du 105 du 107 du 108 du 110 du 111 du 113 du 114 du 116 du 117 du 119 du 120 du 122 du 123 du 125 du 126 du 128 du 129 du 131 du 132 du 134 du 135 du 137 du 138 du 140 du 141 du 143 du 144 du 146 du 147 du 149 du 150 du 152 du 153 du 155 du 156 du 158 du 159 du 161 du 162 du 164 du 165 du 167 du 168 du 170 du 171 du 173 du 174 du 176 du 177 du 179 du 180 du 182 du 183 du 185 du 186 du 189 du 192 du 195 du 198 du 201 du 204 du 207 du 210 du 213 du 216 du 219 du 222 du 225 du 228
dr -80 void
ene 0 1 1e-11 15