"T","p","wallHeatFlux","vtkValidPointMask","arc_length","Points:0","Points:1","Points:2"
2646.4,7e+06,0,1,0,0.0092295,0.013765,0
2645.4,7e+06,0,1,0.0010999,0.0092295,0.013765,0.0010999
2644.5,7e+06,0,1,0.0021998,0.0092295,0.013765,0.0021998
2643.5,7e+06,0,1,0.0032998,0.0092295,0.013765,0.0032998
2642.6,7e+06,0,1,0.0043997,0.0092295,0.013765,0.0043997
2641.7,7e+06,0,1,0.0054996,0.0092295,0.013765,0.0054996
2640.7,7e+06,0,1,0.0065995,0.0092295,0.013765,0.0065995
2639.8,7e+06,0,1,0.0076994,0.0092295,0.013765,0.0076994
2638.8,7e+06,0,1,0.0087994,0.0092295,0.013765,0.0087994
2637.9,7e+06,0,1,0.0098993,0.0092295,0.013765,0.0098993
2637,7e+06,0,1,0.010999,0.0092295,0.013765,0.010999
2636,7e+06,0,1,0.012099,0.0092295,0.013765,0.012099
2635.1,7e+06,0,1,0.013199,0.0092295,0.013765,0.013199
2634.1,7e+06,0,1,0.014299,0.0092295,0.013765,0.014299
2633.2,7e+06,0,1,0.015399,0.0092295,0.013765,0.015399
2632.3,7e+06,0,1,0.016499,0.0092295,0.013765,0.016499
2631.3,7e+06,0,1,0.017599,0.0092295,0.013765,0.017599
2630.4,7e+06,0,1,0.018699,0.0092295,0.013765,0.018699
2629.4,7e+06,0,1,0.019799,0.0092295,0.013765,0.019799
2628.5,7e+06,0,1,0.020898,0.0092295,0.013765,0.020898
2627.6,7e+06,0,1,0.021998,0.0092295,0.013765,0.021998
2626.6,7e+06,0,1,0.023098,0.0092295,0.013765,0.023098
2625.7,7e+06,0,1,0.024198,0.0092295,0.013765,0.024198
2624.7,7e+06,0,1,0.025298,0.0092295,0.013765,0.025298
2623.8,7e+06,0,1,0.026398,0.0092295,0.013765,0.026398
2622.8,7e+06,0,1,0.027498,0.0092295,0.013765,0.027498
2621.9,7e+06,0,1,0.028598,0.0092295,0.013765,0.028598
2621,7e+06,0,1,0.029698,0.0092295,0.013765,0.029698
2620,7e+06,0,1,0.030798,0.0092295,0.013765,0.030798
2619.1,7e+06,0,1,0.031898,0.0092295,0.013765,0.031898
2618.1,7e+06,0,1,0.032998,0.0092295,0.013765,0.032998
2617.2,7e+06,0,1,0.034098,0.0092295,0.013765,0.034098
2616.3,7e+06,0,1,0.035197,0.0092295,0.013765,0.035197
2615.3,7e+06,0,1,0.036297,0.0092295,0.013765,0.036297
2614.4,7e+06,0,1,0.037397,0.0092295,0.013765,0.037397
2613.4,7e+06,0,1,0.038497,0.0092295,0.013765,0.038497
2612.5,7e+06,0,1,0.039597,0.0092295,0.013765,0.039597
2611.6,7e+06,0,1,0.040697,0.0092295,0.013765,0.040697
2610.6,7e+06,0,1,0.041797,0.0092295,0.013765,0.041797
2609.7,7e+06,0,1,0.042897,0.0092295,0.013765,0.042897
2608.7,7e+06,0,1,0.043997,0.0092295,0.013765,0.043997
2607.8,7e+06,0,1,0.045097,0.0092295,0.013765,0.045097
2606.5,7e+06,0,1,0.046197,0.0092295,0.013765,0.046197
2604.6,7e+06,0,1,0.047297,0.0092295,0.013765,0.047297
2602.8,7e+06,0,1,0.048396,0.0092295,0.013765,0.048396
2600.9,7e+06,0,1,0.049496,0.0092295,0.013765,0.049496
2599,7e+06,0,1,0.050596,0.0092295,0.013765,0.050596
2597.1,7e+06,0,1,0.051696,0.0092295,0.013765,0.051696
2595.2,7e+06,0,1,0.052796,0.0092295,0.013765,0.052796
2593.3,7e+06,0,1,0.053896,0.0092295,0.013765,0.053896
2591.4,7e+06,0,1,0.054996,0.0092295,0.013765,0.054996
2589.5,7e+06,0,1,0.056096,0.0092295,0.013765,0.056096
2587.6,7e+06,0,1,0.057196,0.0092295,0.013765,0.057196
2585.7,7e+06,0,1,0.058296,0.0092295,0.013765,0.058296
2583.9,7e+06,0,1,0.059396,0.0092295,0.013765,0.059396
2582,7e+06,0,1,0.060496,0.0092295,0.013765,0.060496
2580.1,7e+06,0,1,0.061596,0.0092295,0.013765,0.061596
2578.2,7e+06,0,1,0.062695,0.0092295,0.013765,0.062695
2576.3,7e+06,0,1,0.063795,0.0092295,0.013765,0.063795
2574.4,7e+06,0,1,0.064895,0.0092295,0.013765,0.064895
2572.5,7e+06,0,1,0.065995,0.0092295,0.013765,0.065995
2570.6,7e+06,0,1,0.067095,0.0092295,0.013765,0.067095
2568.7,7e+06,0,1,0.068195,0.0092295,0.013765,0.068195
2566.9,7e+06,0,1,0.069295,0.0092295,0.013765,0.069295
2565,7e+06,0,1,0.070395,0.0092295,0.013765,0.070395
2563.1,7e+06,0,1,0.071495,0.0092295,0.013765,0.071495
2561.2,7e+06,0,1,0.072595,0.0092295,0.013765,0.072595
2559.3,7e+06,0,1,0.073695,0.0092295,0.013765,0.073695
2557.4,7e+06,0,1,0.074795,0.0092295,0.013765,0.074795
2555.5,7e+06,0,1,0.075894,0.0092295,0.013765,0.075894
2553.6,7e+06,0,1,0.076994,0.0092295,0.013765,0.076994
2551.7,7e+06,0,1,0.078094,0.0092295,0.013765,0.078094
2549.8,7e+06,0,1,0.079194,0.0092295,0.013765,0.079194
2548,7e+06,0,1,0.080294,0.0092295,0.013765,0.080294
2546.1,7e+06,0,1,0.081394,0.0092295,0.013765,0.081394
2544.2,7e+06,0,1,0.082494,0.0092295,0.013765,0.082494
2542.3,7e+06,0,1,0.083594,0.0092295,0.013765,0.083594
2540.4,7e+06,0,1,0.084694,0.0092295,0.013765,0.084694
2538.5,7e+06,0,1,0.085794,0.0092295,0.013765,0.085794
2536.6,7e+06,0,1,0.086894,0.0092295,0.013765,0.086894
2534.7,7e+06,0,1,0.087994,0.0092295,0.013765,0.087994
2532.8,7e+06,0,1,0.089094,0.0092295,0.013765,0.089094
2530.9,7e+06,0,1,0.090193,0.0092295,0.013765,0.090193
2529.1,7e+06,0,1,0.091293,0.0092295,0.013765,0.091293
2527.2,7e+06,0,1,0.092393,0.0092295,0.013765,0.092393
2525.3,7e+06,0,1,0.093493,0.0092295,0.013765,0.093493
2523.4,7e+06,0,1,0.094593,0.0092295,0.013765,0.094593
2521.5,7e+06,0,1,0.095693,0.0092295,0.013765,0.095693
2519.6,7e+06,0,1,0.096793,0.0092295,0.013765,0.096793
2517.7,7e+06,0,1,0.097893,0.0092295,0.013765,0.097893
2515.8,7e+06,0,1,0.098993,0.0092295,0.013765,0.098993
2513.9,7e+06,0,1,0.10009,0.0092295,0.013765,0.10009
2512,7e+06,0,1,0.10119,0.0092295,0.013765,0.10119
2510.1,7e+06,0,1,0.10229,0.0092295,0.013765,0.10229
2508.2,7e+06,0,1,0.10339,0.0092295,0.013765,0.10339
2506.3,7e+06,0,1,0.10449,0.0092295,0.013765,0.10449
2504.4,7e+06,0,1,0.10559,0.0092295,0.013765,0.10559
2502.5,7e+06,0,1,0.10669,0.0092295,0.013765,0.10669
2500.6,7e+06,0,1,0.10779,0.0092295,0.013765,0.10779
2498.7,7e+06,0,1,0.10889,0.0092295,0.013765,0.10889
2496.8,7e+06,0,1,0.10999,0.0092295,0.013765,0.10999
2494.9,7e+06,0,1,0.11109,0.0092295,0.013765,0.11109
2493,7e+06,0,1,0.11219,0.0092295,0.013765,0.11219
2491.1,7e+06,0,1,0.11329,0.0092295,0.013765,0.11329
2489.2,7e+06,0,1,0.11439,0.0092295,0.013765,0.11439
2487.3,7e+06,0,1,0.11549,0.0092295,0.013765,0.11549
2485.4,7e+06,0,1,0.11659,0.0092295,0.013765,0.11659
2483.5,7e+06,0,1,0.11769,0.0092295,0.013765,0.11769
2481.6,7e+06,0,1,0.11879,0.0092295,0.013765,0.11879
2479.7,7e+06,0,1,0.11989,0.0092295,0.013765,0.11989
2477.8,7e+06,0,1,0.12099,0.0092295,0.013765,0.12099
2475.9,7e+06,0,1,0.12209,0.0092295,0.013765,0.12209
2474,7e+06,0,1,0.12319,0.0092295,0.013765,0.12319
2472.1,7e+06,0,1,0.12429,0.0092295,0.013765,0.12429
2470.2,7e+06,0,1,0.12539,0.0092295,0.013765,0.12539
2468.3,7e+06,0,1,0.12649,0.0092295,0.013765,0.12649
2466.4,7e+06,0,1,0.12759,0.0092295,0.013765,0.12759
2464.5,7e+06,0,1,0.12869,0.0092295,0.013765,0.12869
2462.6,7e+06,0,1,0.12979,0.0092295,0.013765,0.12979
2460.7,7e+06,0,1,0.13089,0.0092295,0.013765,0.13089
2458.8,7e+06,0,1,0.13199,0.0092295,0.013765,0.13199
2456.9,7e+06,0,1,0.13309,0.0092295,0.013765,0.13309
2455,7e+06,0,1,0.13419,0.0092295,0.013765,0.13419
2453.1,7e+06,0,1,0.13529,0.0092295,0.013765,0.13529
2451.2,7e+06,0,1,0.13639,0.0092295,0.013765,0.13639
2449.3,7e+06,0,1,0.13749,0.0092295,0.013765,0.13749
2447.4,7e+06,0,1,0.13859,0.0092295,0.013765,0.13859
2445.5,7e+06,0,1,0.13969,0.0092295,0.013765,0.13969
2443.6,7e+06,0,1,0.14079,0.0092295,0.013765,0.14079
2441.7,7e+06,0,1,0.14189,0.0092295,0.013765,0.14189
2439.8,7e+06,0,1,0.14299,0.0092295,0.013765,0.14299
2437.9,7e+06,0,1,0.14409,0.0092295,0.013765,0.14409
2436,7e+06,0,1,0.14519,0.0092295,0.013765,0.14519
2434.1,7e+06,0,1,0.14629,0.0092295,0.013765,0.14629
2432.2,7e+06,0,1,0.14739,0.0092295,0.013765,0.14739
2430.3,7e+06,0,1,0.14849,0.0092295,0.013765,0.14849
2428.4,7e+06,0,1,0.14959,0.0092295,0.013765,0.14959
2426.5,7e+06,0,1,0.15069,0.0092295,0.013765,0.15069
2424.6,7e+06,0,1,0.15179,0.0092295,0.013765,0.15179
2422.7,7e+06,0,1,0.15289,0.0092295,0.013765,0.15289
2420.8,7e+06,0,1,0.15399,0.0092295,0.013765,0.15399
2418.9,7e+06,0,1,0.15509,0.0092295,0.013765,0.15509
2417,7e+06,0,1,0.15619,0.0092295,0.013765,0.15619
2415.1,7e+06,0,1,0.15729,0.0092295,0.013765,0.15729
2413.2,7e+06,0,1,0.15839,0.0092295,0.013765,0.15839
2411.3,7e+06,0,1,0.15949,0.0092295,0.013765,0.15949
2409.4,7e+06,0,1,0.16059,0.0092295,0.013765,0.16059
2407.5,7e+06,0,1,0.16169,0.0092295,0.013765,0.16169
2405.6,7e+06,0,1,0.16279,0.0092295,0.013765,0.16279
2403.7,7e+06,0,1,0.16389,0.0092295,0.013765,0.16389
2401.8,7e+06,0,1,0.16499,0.0092295,0.013765,0.16499
2399.9,7e+06,0,1,0.16609,0.0092295,0.013765,0.16609
2398,7e+06,0,1,0.16719,0.0092295,0.013765,0.16719
2396.1,7e+06,0,1,0.16829,0.0092295,0.013765,0.16829
2394.2,7e+06,0,1,0.16939,0.0092295,0.013765,0.16939
2392.3,7e+06,0,1,0.17049,0.0092295,0.013765,0.17049
2390.4,7e+06,0,1,0.17159,0.0092295,0.013765,0.17159
2388.5,7e+06,0,1,0.17269,0.0092295,0.013765,0.17269
2386.6,7e+06,0,1,0.17379,0.0092295,0.013765,0.17379
2384.7,7e+06,0,1,0.17489,0.0092295,0.013765,0.17489
2382.8,7e+06,0,1,0.17599,0.0092295,0.013765,0.17599
2380.9,7e+06,0,1,0.17709,0.0092295,0.013765,0.17709
2379,7e+06,0,1,0.17819,0.0092295,0.013765,0.17819
2377.1,7e+06,0,1,0.17929,0.0092295,0.013765,0.17929
2375.2,7e+06,0,1,0.18039,0.0092295,0.013765,0.18039
2373.2,7e+06,0,1,0.18149,0.0092295,0.013765,0.18149
2371.3,7e+06,0,1,0.18259,0.0092295,0.013765,0.18259
2369.4,7e+06,0,1,0.18369,0.0092295,0.013765,0.18369
2367.5,7e+06,0,1,0.18479,0.0092295,0.013765,0.18479
2365.6,7e+06,0,1,0.18589,0.0092295,0.013765,0.18589
2363.7,7e+06,0,1,0.18699,0.0092295,0.013765,0.18699
2361.8,7e+06,0,1,0.18809,0.0092295,0.013765,0.18809
2359.9,7e+06,0,1,0.18919,0.0092295,0.013765,0.18919
2358,7e+06,0,1,0.19029,0.0092295,0.013765,0.19029
2356.1,7e+06,0,1,0.19139,0.0092295,0.013765,0.19139
2354.2,7e+06,0,1,0.19249,0.0092295,0.013765,0.19249
2352.3,7e+06,0,1,0.19359,0.0092295,0.013765,0.19359
2350.4,7e+06,0,1,0.19469,0.0092295,0.013765,0.19469
2348.5,7e+06,0,1,0.19579,0.0092295,0.013765,0.19579
2346.6,7e+06,0,1,0.19689,0.0092295,0.013765,0.19689
2344.7,7e+06,0,1,0.19799,0.0092295,0.013765,0.19799
2342.8,7e+06,0,1,0.19909,0.0092295,0.013765,0.19909
2340.9,7e+06,0,1,0.20019,0.0092295,0.013765,0.20019
2339,7e+06,0,1,0.20129,0.0092295,0.013765,0.20129
2337.1,7e+06,0,1,0.20239,0.0092295,0.013765,0.20239
2335.2,7e+06,0,1,0.20349,0.0092295,0.013765,0.20349
2333.3,7e+06,0,1,0.20459,0.0092295,0.013765,0.20459
2331.4,7e+06,0,1,0.20569,0.0092295,0.013765,0.20569
2329.5,7e+06,0,1,0.20678,0.0092295,0.013765,0.20678
2327.6,7e+06,0,1,0.20788,0.0092295,0.013765,0.20788
2325.7,7e+06,0,1,0.20898,0.0092295,0.013765,0.20898
2323.8,7e+06,0,1,0.21008,0.0092295,0.013765,0.21008
2321.9,7e+06,0,1,0.21118,0.0092295,0.013765,0.21118
2320,7e+06,0,1,0.21228,0.0092295,0.013765,0.21228
2318,7e+06,0,1,0.21338,0.0092295,0.013765,0.21338
2316.1,7e+06,0,1,0.21448,0.0092295,0.013765,0.21448
2314.2,7e+06,0,1,0.21558,0.0092295,0.013765,0.21558
2312.3,7e+06,0,1,0.21668,0.0092295,0.013765,0.21668
2310.4,7e+06,0,1,0.21778,0.0092295,0.013765,0.21778
2308.5,7e+06,0,1,0.21888,0.0092295,0.013765,0.21888
2306.6,7e+06,0,1,0.21998,0.0092295,0.013765,0.21998
2304.7,7e+06,0,1,0.22108,0.0092295,0.013765,0.22108
2302.8,7e+06,0,1,0.22218,0.0092295,0.013765,0.22218
2300.9,7e+06,0,1,0.22328,0.0092295,0.013765,0.22328
2299,7e+06,0,1,0.22438,0.0092295,0.013765,0.22438
2297.1,7e+06,0,1,0.22548,0.0092295,0.013765,0.22548
2295.2,7e+06,0,1,0.22658,0.0092295,0.013765,0.22658
2293.3,7e+06,0,1,0.22768,0.0092295,0.013765,0.22768
2291.4,7e+06,0,1,0.22878,0.0092295,0.013765,0.22878
2289.5,7e+06,0,1,0.22988,0.0092295,0.013765,0.22988
2287.6,7e+06,0,1,0.23098,0.0092295,0.013765,0.23098
2285.7,7e+06,0,1,0.23208,0.0092295,0.013765,0.23208
2283.8,7e+06,0,1,0.23318,0.0092295,0.013765,0.23318
2281.9,7e+06,0,1,0.23428,0.0092295,0.013765,0.23428
2280,7e+06,0,1,0.23538,0.0092295,0.013765,0.23538
2278.1,7e+06,0,1,0.23648,0.0092295,0.013765,0.23648
2276.2,7e+06,0,1,0.23758,0.0092295,0.013765,0.23758
2274.2,7e+06,0,1,0.23868,0.0092295,0.013765,0.23868
2272.3,7e+06,0,1,0.23978,0.0092295,0.013765,0.23978
2270.4,7e+06,0,1,0.24088,0.0092295,0.013765,0.24088
2268.5,7e+06,0,1,0.24198,0.0092295,0.013765,0.24198
2266.6,7e+06,0,1,0.24308,0.0092295,0.013765,0.24308
2264.7,7e+06,0,1,0.24418,0.0092295,0.013765,0.24418
2262.8,7e+06,0,1,0.24528,0.0092295,0.013765,0.24528
2260.9,7e+06,0,1,0.24638,0.0092295,0.013765,0.24638
2259,7e+06,0,1,0.24748,0.0092295,0.013765,0.24748
2257.1,7e+06,0,1,0.24858,0.0092295,0.013765,0.24858
2255.2,7e+06,0,1,0.24968,0.0092295,0.013765,0.24968
2253.3,7e+06,0,1,0.25078,0.0092295,0.013765,0.25078
2251.4,7e+06,0,1,0.25188,0.0092295,0.013765,0.25188
2249.5,7e+06,0,1,0.25298,0.0092295,0.013765,0.25298
2247.6,7e+06,0,1,0.25408,0.0092295,0.013765,0.25408
2245.7,7e+06,0,1,0.25518,0.0092295,0.013765,0.25518
2243.8,7e+06,0,1,0.25628,0.0092295,0.013765,0.25628
2241.8,7e+06,0,1,0.25738,0.0092295,0.013765,0.25738
2239.9,7e+06,0,1,0.25848,0.0092295,0.013765,0.25848
2238,7e+06,0,1,0.25958,0.0092295,0.013765,0.25958
2236.1,7e+06,0,1,0.26068,0.0092295,0.013765,0.26068
2234.2,7e+06,0,1,0.26178,0.0092295,0.013765,0.26178
2232.3,7e+06,0,1,0.26288,0.0092295,0.013765,0.26288
2230.4,7e+06,0,1,0.26398,0.0092295,0.013765,0.26398
2228.5,7e+06,0,1,0.26508,0.0092295,0.013765,0.26508
2226.6,7e+06,0,1,0.26618,0.0092295,0.013765,0.26618
2224.7,7e+06,0,1,0.26728,0.0092295,0.013765,0.26728
2222.8,7e+06,0,1,0.26838,0.0092295,0.013765,0.26838
2220.9,7e+06,0,1,0.26948,0.0092295,0.013765,0.26948
2219,7e+06,0,1,0.27058,0.0092295,0.013765,0.27058
2217.1,7e+06,0,1,0.27168,0.0092295,0.013765,0.27168
2215.2,7e+06,0,1,0.27278,0.0092295,0.013765,0.27278
2213.3,7e+06,0,1,0.27388,0.0092295,0.013765,0.27388
2211.4,7e+06,0,1,0.27498,0.0092295,0.013765,0.27498
2209.4,7e+06,0,1,0.27608,0.0092295,0.013765,0.27608
2207.5,7e+06,0,1,0.27718,0.0092295,0.013765,0.27718
2205.6,7e+06,0,1,0.27828,0.0092295,0.013765,0.27828
2203.7,7e+06,0,1,0.27938,0.0092295,0.013765,0.27938
2201.8,7e+06,0,1,0.28048,0.0092295,0.013765,0.28048
2199.9,7e+06,0,1,0.28158,0.0092295,0.013765,0.28158
2198,7e+06,0,1,0.28268,0.0092295,0.013765,0.28268
2196.1,7e+06,0,1,0.28378,0.0092295,0.013765,0.28378
2194.2,7e+06,0,1,0.28488,0.0092295,0.013765,0.28488
2192.3,7e+06,0,1,0.28598,0.0092295,0.013765,0.28598
2190.4,7e+06,0,1,0.28708,0.0092295,0.013765,0.28708
2188.5,7e+06,0,1,0.28818,0.0092295,0.013765,0.28818
2186.5,7e+06,0,1,0.28928,0.0092295,0.013765,0.28928
2184.6,7e+06,0,1,0.29038,0.0092295,0.013765,0.29038
2182.7,7e+06,0,1,0.29148,0.0092295,0.013765,0.29148
2180.8,7e+06,0,1,0.29258,0.0092295,0.013765,0.29258
2178.9,7e+06,0,1,0.29368,0.0092295,0.013765,0.29368
2177,7e+06,0,1,0.29478,0.0092295,0.013765,0.29478
2175.1,7e+06,0,1,0.29588,0.0092295,0.013765,0.29588
2173.2,7e+06,0,1,0.29698,0.0092295,0.013765,0.29698
2171.3,7e+06,0,1,0.29808,0.0092295,0.013765,0.29808
2169.4,7e+06,0,1,0.29918,0.0092295,0.013765,0.29918
2167.5,7e+06,0,1,0.30028,0.0092295,0.013765,0.30028
2165.6,7e+06,0,1,0.30138,0.0092295,0.013765,0.30138
2163.6,7e+06,0,1,0.30248,0.0092295,0.013765,0.30248
2161.7,7e+06,0,1,0.30358,0.0092295,0.013765,0.30358
2159.8,7e+06,0,1,0.30468,0.0092295,0.013765,0.30468
2157.9,7e+06,0,1,0.30578,0.0092295,0.013765,0.30578
2156,7e+06,0,1,0.30688,0.0092295,0.013765,0.30688
2154.1,7e+06,0,1,0.30798,0.0092295,0.013765,0.30798
2152.2,7e+06,0,1,0.30908,0.0092295,0.013765,0.30908
2150.3,7e+06,0,1,0.31018,0.0092295,0.013765,0.31018
2148.4,7e+06,0,1,0.31128,0.0092295,0.013765,0.31128
2146.5,7e+06,0,1,0.31238,0.0092295,0.013765,0.31238
2144.6,7e+06,0,1,0.31348,0.0092295,0.013765,0.31348
2142.6,7e+06,0,1,0.31458,0.0092295,0.013765,0.31458
2140.7,7e+06,0,1,0.31568,0.0092295,0.013765,0.31568
2138.8,7e+06,0,1,0.31678,0.0092295,0.013765,0.31678
2136.9,7e+06,0,1,0.31788,0.0092295,0.013765,0.31788
2135,7e+06,0,1,0.31898,0.0092295,0.013765,0.31898
2133.1,7e+06,0,1,0.32008,0.0092295,0.013765,0.32008
2131.2,7e+06,0,1,0.32118,0.0092295,0.013765,0.32118
2129.3,7e+06,0,1,0.32228,0.0092295,0.013765,0.32228
2127.4,7e+06,0,1,0.32338,0.0092295,0.013765,0.32338
2125.5,7e+06,0,1,0.32448,0.0092295,0.013765,0.32448
2123.5,7e+06,0,1,0.32558,0.0092295,0.013765,0.32558
2121.6,7e+06,0,1,0.32668,0.0092295,0.013765,0.32668
2119.7,7e+06,0,1,0.32778,0.0092295,0.013765,0.32778
2117.8,7e+06,0,1,0.32888,0.0092295,0.013765,0.32888
2115.9,7e+06,0,1,0.32998,0.0092295,0.013765,0.32998
2114,7e+06,0,1,0.33108,0.0092295,0.013765,0.33108
2112.1,7e+06,0,1,0.33218,0.0092295,0.013765,0.33218
2110.2,7e+06,0,1,0.33328,0.0092295,0.013765,0.33328
2108.3,7e+06,0,1,0.33438,0.0092295,0.013765,0.33438
2106.3,7e+06,0,1,0.33548,0.0092295,0.013765,0.33548
2104.4,7e+06,0,1,0.33658,0.0092295,0.013765,0.33658
2102.5,7e+06,0,1,0.33768,0.0092295,0.013765,0.33768
2100.6,7e+06,0,1,0.33878,0.0092295,0.013765,0.33878
2098.7,7e+06,0,1,0.33988,0.0092295,0.013765,0.33988
2096.8,7e+06,0,1,0.34098,0.0092295,0.013765,0.34098
2094.9,7e+06,0,1,0.34208,0.0092295,0.013765,0.34208
2093,7e+06,0,1,0.34318,0.0092295,0.013765,0.34318
2091,7e+06,0,1,0.34427,0.0092295,0.013765,0.34427
2089.1,7e+06,0,1,0.34537,0.0092295,0.013765,0.34537
2087.2,7e+06,0,1,0.34647,0.0092295,0.013765,0.34647
2085.3,7e+06,0,1,0.34757,0.0092295,0.013765,0.34757
2083.4,7e+06,0,1,0.34867,0.0092295,0.013765,0.34867
2081.5,7e+06,0,1,0.34977,0.0092295,0.013765,0.34977
2079.6,7e+06,0,1,0.35087,0.0092295,0.013765,0.35087
2077.7,7e+06,0,1,0.35197,0.0092295,0.013765,0.35197
2075.7,7e+06,0,1,0.35307,0.0092295,0.013765,0.35307
2073.8,7e+06,0,1,0.35417,0.0092295,0.013765,0.35417
2071.9,7e+06,0,1,0.35527,0.0092295,0.013765,0.35527
2070,7e+06,0,1,0.35637,0.0092295,0.013765,0.35637
2068.1,7e+06,0,1,0.35747,0.0092295,0.013765,0.35747
2066.2,7e+06,0,1,0.35857,0.0092295,0.013765,0.35857
2064.3,7e+06,0,1,0.35967,0.0092295,0.013765,0.35967
2062.4,7e+06,0,1,0.36077,0.0092295,0.013765,0.36077
2060.4,7e+06,0,1,0.36187,0.0092295,0.013765,0.36187
2058.5,7e+06,0,1,0.36297,0.0092295,0.013765,0.36297
2056.6,7e+06,0,1,0.36407,0.0092295,0.013765,0.36407
2054.7,7e+06,0,1,0.36517,0.0092295,0.013765,0.36517
2052.8,7e+06,0,1,0.36627,0.0092295,0.013765,0.36627
2050.9,7e+06,0,1,0.36737,0.0092295,0.013765,0.36737
2049,7e+06,0,1,0.36847,0.0092295,0.013765,0.36847
2047.1,7e+06,0,1,0.36957,0.0092295,0.013765,0.36957
2045.1,7e+06,0,1,0.37067,0.0092295,0.013765,0.37067
2043.2,7e+06,0,1,0.37177,0.0092295,0.013765,0.37177
2041.3,7e+06,0,1,0.37287,0.0092295,0.013765,0.37287
2039.4,7e+06,0,1,0.37397,0.0092295,0.013765,0.37397
2037.5,7e+06,0,1,0.37507,0.0092295,0.013765,0.37507
2035.6,7e+06,0,1,0.37617,0.0092295,0.013765,0.37617
2033.6,7e+06,0,1,0.37727,0.0092295,0.013765,0.37727
2031.7,7e+06,0,1,0.37837,0.0092295,0.013765,0.37837
2029.8,7e+06,0,1,0.37947,0.0092295,0.013765,0.37947
2027.9,7e+06,0,1,0.38057,0.0092295,0.013765,0.38057
2026,7e+06,0,1,0.38167,0.0092295,0.013765,0.38167
2024.1,7e+06,0,1,0.38277,0.0092295,0.013765,0.38277
2022.1,7e+06,0,1,0.38387,0.0092295,0.013765,0.38387
2020.2,7e+06,0,1,0.38497,0.0092295,0.013765,0.38497
2018.3,7e+06,0,1,0.38607,0.0092295,0.013765,0.38607
2016.4,7e+06,0,1,0.38717,0.0092295,0.013765,0.38717
2014.5,7e+06,0,1,0.38827,0.0092295,0.013765,0.38827
2012.6,7e+06,0,1,0.38937,0.0092295,0.013765,0.38937
2010.6,7e+06,0,1,0.39047,0.0092295,0.013765,0.39047
2008.7,7e+06,0,1,0.39157,0.0092295,0.013765,0.39157
2006.8,7e+06,0,1,0.39267,0.0092295,0.013765,0.39267
2004.9,7e+06,0,1,0.39377,0.0092295,0.013765,0.39377
2003,7e+06,0,1,0.39487,0.0092295,0.013765,0.39487
2001.1,7e+06,0,1,0.39597,0.0092295,0.013765,0.39597
1999.1,7e+06,0,1,0.39707,0.0092295,0.013765,0.39707
1997.2,7e+06,0,1,0.39817,0.0092295,0.013765,0.39817
1995.3,7e+06,0,1,0.39927,0.0092295,0.013765,0.39927
1993.4,7e+06,0,1,0.40037,0.0092295,0.013765,0.40037
1991.5,7e+06,0,1,0.40147,0.0092295,0.013765,0.40147
1989.6,7e+06,0,1,0.40257,0.0092295,0.013765,0.40257
1987.6,7e+06,0,1,0.40367,0.0092295,0.013765,0.40367
1985.7,7e+06,0,1,0.40477,0.0092295,0.013765,0.40477
1983.8,7e+06,0,1,0.40587,0.0092295,0.013765,0.40587
1981.9,7e+06,0,1,0.40697,0.0092295,0.013765,0.40697
1980,7e+06,0,1,0.40807,0.0092295,0.013765,0.40807
1978.1,7e+06,0,1,0.40917,0.0092295,0.013765,0.40917
1976.1,7e+06,0,1,0.41027,0.0092295,0.013765,0.41027
1974.2,7e+06,0,1,0.41137,0.0092295,0.013765,0.41137
1972.3,7e+06,0,1,0.41247,0.0092295,0.013765,0.41247
1970.4,7e+06,0,1,0.41357,0.0092295,0.013765,0.41357
1968.5,7e+06,0,1,0.41467,0.0092295,0.013765,0.41467
1966.5,7e+06,0,1,0.41577,0.0092295,0.013765,0.41577
1964.6,7e+06,0,1,0.41687,0.0092295,0.013765,0.41687
1962.7,7e+06,0,1,0.41797,0.0092295,0.013765,0.41797
1960.8,7e+06,0,1,0.41907,0.0092295,0.013765,0.41907
1958.8,7e+06,0,1,0.42017,0.0092295,0.013765,0.42017
1956.9,7e+06,0,1,0.42127,0.0092295,0.013765,0.42127
1955,7e+06,0,1,0.42237,0.0092295,0.013765,0.42237
1953.1,7e+06,0,1,0.42347,0.0092295,0.013765,0.42347
1951.1,7e+06,0,1,0.42457,0.0092295,0.013765,0.42457
1949.2,7e+06,0,1,0.42567,0.0092295,0.013765,0.42567
1947.3,7e+06,0,1,0.42677,0.0092295,0.013765,0.42677
1945.4,7e+06,0,1,0.42787,0.0092295,0.013765,0.42787
1943.5,7e+06,0,1,0.42897,0.0092295,0.013765,0.42897
1941.5,7e+06,0,1,0.43007,0.0092295,0.013765,0.43007
1939.6,7e+06,0,1,0.43117,0.0092295,0.013765,0.43117
1937.7,7e+06,0,1,0.43227,0.0092295,0.013765,0.43227
1935.8,7e+06,0,1,0.43337,0.0092295,0.013765,0.43337
1933.8,7e+06,0,1,0.43447,0.0092295,0.013765,0.43447
1931.9,7e+06,0,1,0.43557,0.0092295,0.013765,0.43557
1930,7e+06,0,1,0.43667,0.0092295,0.013765,0.43667
1928.1,7e+06,0,1,0.43777,0.0092295,0.013765,0.43777
1926.2,7e+06,0,1,0.43887,0.0092295,0.013765,0.43887
1924.2,7e+06,0,1,0.43997,0.0092295,0.013765,0.43997
1922.3,7e+06,0,1,0.44107,0.0092295,0.013765,0.44107
1920.4,7e+06,0,1,0.44217,0.0092295,0.013765,0.44217
1918.5,7e+06,0,1,0.44327,0.0092295,0.013765,0.44327
1916.5,7e+06,0,1,0.44437,0.0092295,0.013765,0.44437
1914.6,7e+06,0,1,0.44547,0.0092295,0.013765,0.44547
1912.7,7e+06,0,1,0.44657,0.0092295,0.013765,0.44657
1910.8,7e+06,0,1,0.44767,0.0092295,0.013765,0.44767
1908.8,7e+06,0,1,0.44877,0.0092295,0.013765,0.44877
1906.9,7e+06,0,1,0.44987,0.0092295,0.013765,0.44987
1905,7e+06,0,1,0.45097,0.0092295,0.013765,0.45097
1903.1,7e+06,0,1,0.45207,0.0092295,0.013765,0.45207
1901.2,7e+06,0,1,0.45317,0.0092295,0.013765,0.45317
1899.2,7e+06,0,1,0.45427,0.0092295,0.013765,0.45427
1897.3,7e+06,0,1,0.45537,0.0092295,0.013765,0.45537
1895.4,7e+06,0,1,0.45647,0.0092295,0.013765,0.45647
1893.5,7e+06,0,1,0.45757,0.0092295,0.013765,0.45757
1891.5,7e+06,0,1,0.45867,0.0092295,0.013765,0.45867
1889.6,7e+06,0,1,0.45977,0.0092295,0.013765,0.45977
1887.7,7e+06,0,1,0.46087,0.0092295,0.013765,0.46087
1885.7,7e+06,0,1,0.46197,0.0092295,0.013765,0.46197
1883.8,7e+06,0,1,0.46307,0.0092295,0.013765,0.46307
1881.9,7e+06,0,1,0.46417,0.0092295,0.013765,0.46417
1880,7e+06,0,1,0.46527,0.0092295,0.013765,0.46527
1878,7e+06,0,1,0.46637,0.0092295,0.013765,0.46637
1876.1,7e+06,0,1,0.46747,0.0092295,0.013765,0.46747
1874.2,7e+06,0,1,0.46857,0.0092295,0.013765,0.46857
1872.2,7e+06,0,1,0.46967,0.0092295,0.013765,0.46967
1870.3,7e+06,0,1,0.47077,0.0092295,0.013765,0.47077
1868.4,7e+06,0,1,0.47187,0.0092295,0.013765,0.47187
1866.4,7e+06,0,1,0.47297,0.0092295,0.013765,0.47297
1864.5,7e+06,0,1,0.47407,0.0092295,0.013765,0.47407
1862.6,7e+06,0,1,0.47517,0.0092295,0.013765,0.47517
1860.6,7e+06,0,1,0.47627,0.0092295,0.013765,0.47627
1858.7,7e+06,0,1,0.47737,0.0092295,0.013765,0.47737
1856.8,7e+06,0,1,0.47847,0.0092295,0.013765,0.47847
1854.9,7e+06,0,1,0.47957,0.0092295,0.013765,0.47957
1852.9,7e+06,0,1,0.48067,0.0092295,0.013765,0.48067
1851,7e+06,0,1,0.48176,0.0092295,0.013765,0.48176
1849.1,7e+06,0,1,0.48286,0.0092295,0.013765,0.48286
1847.1,7e+06,0,1,0.48396,0.0092295,0.013765,0.48396
1845.2,7e+06,0,1,0.48506,0.0092295,0.013765,0.48506
1843.3,7e+06,0,1,0.48616,0.0092295,0.013765,0.48616
1841.3,7e+06,0,1,0.48726,0.0092295,0.013765,0.48726
1839.4,7e+06,0,1,0.48836,0.0092295,0.013765,0.48836
1837.5,7e+06,0,1,0.48946,0.0092295,0.013765,0.48946
1835.6,7e+06,0,1,0.49056,0.0092295,0.013765,0.49056
1833.6,7e+06,0,1,0.49166,0.0092295,0.013765,0.49166
1831.7,7e+06,0,1,0.49276,0.0092295,0.013765,0.49276
1829.8,7e+06,0,1,0.49386,0.0092295,0.013765,0.49386
1827.8,7e+06,0,1,0.49496,0.0092295,0.013765,0.49496
1825.9,7e+06,0,1,0.49606,0.0092295,0.013765,0.49606
1824,7e+06,0,1,0.49716,0.0092295,0.013765,0.49716
1822,7e+06,0,1,0.49826,0.0092295,0.013765,0.49826
1820.1,7e+06,0,1,0.49936,0.0092295,0.013765,0.49936
1818.2,7e+06,0,1,0.50046,0.0092295,0.013765,0.50046
1816.2,7e+06,0,1,0.50156,0.0092295,0.013765,0.50156
1814.3,7e+06,0,1,0.50266,0.0092295,0.013765,0.50266
1812.4,7e+06,0,1,0.50376,0.0092295,0.013765,0.50376
1810.5,7e+06,0,1,0.50486,0.0092295,0.013765,0.50486
1808.5,7e+06,0,1,0.50596,0.0092295,0.013765,0.50596
1806.6,7e+06,0,1,0.50706,0.0092295,0.013765,0.50706
1804.6,7e+06,0,1,0.50816,0.0092295,0.013765,0.50816
1802.7,7e+06,0,1,0.50926,0.0092295,0.013765,0.50926
1800.8,7e+06,0,1,0.51036,0.0092295,0.013765,0.51036
1798.8,7e+06,0,1,0.51146,0.0092295,0.013765,0.51146
1796.9,7e+06,0,1,0.51256,0.0092295,0.013765,0.51256
1794.9,7e+06,0,1,0.51366,0.0092295,0.013765,0.51366
1793,7e+06,0,1,0.51476,0.0092295,0.013765,0.51476
1791.1,7e+06,0,1,0.51586,0.0092295,0.013765,0.51586
1789.1,7e+06,0,1,0.51696,0.0092295,0.013765,0.51696
1787.2,7e+06,0,1,0.51806,0.0092295,0.013765,0.51806
1785.2,7e+06,0,1,0.51916,0.0092295,0.013765,0.51916
1783.3,7e+06,0,1,0.52026,0.0092295,0.013765,0.52026
1781.4,7e+06,0,1,0.52136,0.0092295,0.013765,0.52136
1779.4,7e+06,0,1,0.52246,0.0092295,0.013765,0.52246
1777.5,7e+06,0,1,0.52356,0.0092295,0.013765,0.52356
1775.5,7e+06,0,1,0.52466,0.0092295,0.013765,0.52466
1773.6,7e+06,0,1,0.52576,0.0092295,0.013765,0.52576
1771.7,7e+06,0,1,0.52686,0.0092295,0.013765,0.52686
1769.7,7e+06,0,1,0.52796,0.0092295,0.013765,0.52796
1767.8,7e+06,0,1,0.52906,0.0092295,0.013765,0.52906
1765.8,7e+06,0,1,0.53016,0.0092295,0.013765,0.53016
1763.9,7e+06,0,1,0.53126,0.0092295,0.013765,0.53126
1762,7e+06,0,1,0.53236,0.0092295,0.013765,0.53236
1760,7e+06,0,1,0.53346,0.0092295,0.013765,0.53346
1758.1,7e+06,0,1,0.53456,0.0092295,0.013765,0.53456
1756.1,7e+06,0,1,0.53566,0.0092295,0.013765,0.53566
1754.2,7e+06,0,1,0.53676,0.0092295,0.013765,0.53676
1752.3,7e+06,0,1,0.53786,0.0092295,0.013765,0.53786
1750.3,7e+06,0,1,0.53896,0.0092295,0.013765,0.53896
1748.4,7e+06,0,1,0.54006,0.0092295,0.013765,0.54006
1746.4,7e+06,0,1,0.54116,0.0092295,0.013765,0.54116
1744.5,7e+06,0,1,0.54226,0.0092295,0.013765,0.54226
1742.6,7e+06,0,1,0.54336,0.0092295,0.013765,0.54336
1740.6,7e+06,0,1,0.54446,0.0092295,0.013765,0.54446
1738.7,7e+06,0,1,0.54556,0.0092295,0.013765,0.54556
1736.7,7e+06,0,1,0.54666,0.0092295,0.013765,0.54666
1734.8,7e+06,0,1,0.54776,0.0092295,0.013765,0.54776
1732.9,7e+06,0,1,0.54886,0.0092295,0.013765,0.54886
1730.9,7e+06,0,1,0.54996,0.0092295,0.013765,0.54996
1729,7e+06,0,1,0.55106,0.0092295,0.013765,0.55106
1727,7e+06,0,1,0.55216,0.0092295,0.013765,0.55216
1725.1,7e+06,0,1,0.55326,0.0092295,0.013765,0.55326
1723.1,7e+06,0,1,0.55436,0.0092295,0.013765,0.55436
1721.2,7e+06,0,1,0.55546,0.0092295,0.013765,0.55546
1719.2,7e+06,0,1,0.55656,0.0092295,0.013765,0.55656
1717.3,7e+06,0,1,0.55766,0.0092295,0.013765,0.55766
1715.3,7e+06,0,1,0.55876,0.0092295,0.013765,0.55876
1713.4,7e+06,0,1,0.55986,0.0092295,0.013765,0.55986
1711.4,7e+06,0,1,0.56096,0.0092295,0.013765,0.56096
1709.5,7e+06,0,1,0.56206,0.0092295,0.013765,0.56206
1707.5,7e+06,0,1,0.56316,0.0092295,0.013765,0.56316
1705.6,7e+06,0,1,0.56426,0.0092295,0.013765,0.56426
1703.6,7e+06,0,1,0.56536,0.0092295,0.013765,0.56536
1701.7,7e+06,0,1,0.56646,0.0092295,0.013765,0.56646
1699.7,7e+06,0,1,0.56756,0.0092295,0.013765,0.56756
1697.8,7e+06,0,1,0.56866,0.0092295,0.013765,0.56866
1695.8,7e+06,0,1,0.56976,0.0092295,0.013765,0.56976
1693.9,7e+06,0,1,0.57086,0.0092295,0.013765,0.57086
1691.9,7e+06,0,1,0.57196,0.0092295,0.013765,0.57196
1690,7e+06,0,1,0.57306,0.0092295,0.013765,0.57306
1688,7e+06,0,1,0.57416,0.0092295,0.013765,0.57416
1686.1,7e+06,0,1,0.57526,0.0092295,0.013765,0.57526
1684.1,7e+06,0,1,0.57636,0.0092295,0.013765,0.57636
1682.2,7e+06,0,1,0.57746,0.0092295,0.013765,0.57746
1680.2,7e+06,0,1,0.57856,0.0092295,0.013765,0.57856
1678.3,7e+06,0,1,0.57966,0.0092295,0.013765,0.57966
1676.3,7e+06,0,1,0.58076,0.0092295,0.013765,0.58076
1674.4,7e+06,0,1,0.58186,0.0092295,0.013765,0.58186
1672.4,7e+06,0,1,0.58296,0.0092295,0.013765,0.58296
1670.5,7e+06,0,1,0.58406,0.0092295,0.013765,0.58406
1668.5,7e+06,0,1,0.58516,0.0092295,0.013765,0.58516
1666.6,7e+06,0,1,0.58626,0.0092295,0.013765,0.58626
1664.6,7e+06,0,1,0.58736,0.0092295,0.013765,0.58736
1662.6,7e+06,0,1,0.58846,0.0092295,0.013765,0.58846
1660.7,7e+06,0,1,0.58956,0.0092295,0.013765,0.58956
1658.7,7e+06,0,1,0.59066,0.0092295,0.013765,0.59066
1656.8,7e+06,0,1,0.59176,0.0092295,0.013765,0.59176
1654.8,7e+06,0,1,0.59286,0.0092295,0.013765,0.59286
1652.9,7e+06,0,1,0.59396,0.0092295,0.013765,0.59396
1650.9,7e+06,0,1,0.59506,0.0092295,0.013765,0.59506
1649,7e+06,0,1,0.59616,0.0092295,0.013765,0.59616
1647,7e+06,0,1,0.59726,0.0092295,0.013765,0.59726
1645.1,7e+06,0,1,0.59836,0.0092295,0.013765,0.59836
1643.1,7e+06,0,1,0.59946,0.0092295,0.013765,0.59946
1641.1,7e+06,0,1,0.60056,0.0092295,0.013765,0.60056
1639.2,7e+06,0,1,0.60166,0.0092295,0.013765,0.60166
1637.2,7e+06,0,1,0.60276,0.0092295,0.013765,0.60276
1635.3,7e+06,0,1,0.60386,0.0092295,0.013765,0.60386
1633.3,7e+06,0,1,0.60496,0.0092295,0.013765,0.60496
1631.3,7e+06,0,1,0.60606,0.0092295,0.013765,0.60606
1629.4,7e+06,0,1,0.60716,0.0092295,0.013765,0.60716
1627.4,7e+06,0,1,0.60826,0.0092295,0.013765,0.60826
1625.4,7e+06,0,1,0.60936,0.0092295,0.013765,0.60936
1623.5,7e+06,0,1,0.61046,0.0092295,0.013765,0.61046
1621.5,7e+06,0,1,0.61156,0.0092295,0.013765,0.61156
1619.5,7e+06,0,1,0.61266,0.0092295,0.013765,0.61266
1617.6,7e+06,0,1,0.61376,0.0092295,0.013765,0.61376
1615.6,7e+06,0,1,0.61486,0.0092295,0.013765,0.61486
1613.7,7e+06,0,1,0.61596,0.0092295,0.013765,0.61596
1611.7,7e+06,0,1,0.61706,0.0092295,0.013765,0.61706
1609.7,7e+06,0,1,0.61816,0.0092295,0.013765,0.61816
1607.8,7e+06,0,1,0.61926,0.0092295,0.013765,0.61926
1605.8,7e+06,0,1,0.62035,0.0092295,0.013765,0.62035
1603.8,7e+06,0,1,0.62145,0.0092295,0.013765,0.62145
1601.9,7e+06,0,1,0.62255,0.0092295,0.013765,0.62255
1599.9,7e+06,0,1,0.62365,0.0092295,0.013765,0.62365
1598,7e+06,0,1,0.62475,0.0092295,0.013765,0.62475
1596,7e+06,0,1,0.62585,0.0092295,0.013765,0.62585
1594,7e+06,0,1,0.62695,0.0092295,0.013765,0.62695
1592.1,7e+06,0,1,0.62805,0.0092295,0.013765,0.62805
1590.1,7e+06,0,1,0.62915,0.0092295,0.013765,0.62915
1588.1,7e+06,0,1,0.63025,0.0092295,0.013765,0.63025
1586.2,7e+06,0,1,0.63135,0.0092295,0.013765,0.63135
1584.2,7e+06,0,1,0.63245,0.0092295,0.013765,0.63245
1582.2,7e+06,0,1,0.63355,0.0092295,0.013765,0.63355
1580.3,7e+06,0,1,0.63465,0.0092295,0.013765,0.63465
1578.3,7e+06,0,1,0.63575,0.0092295,0.013765,0.63575
1576.4,7e+06,0,1,0.63685,0.0092295,0.013765,0.63685
1574.4,7e+06,0,1,0.63795,0.0092295,0.013765,0.63795
1572.4,7e+06,0,1,0.63905,0.0092295,0.013765,0.63905
1570.5,7e+06,0,1,0.64015,0.0092295,0.013765,0.64015
1568.5,7e+06,0,1,0.64125,0.0092295,0.013765,0.64125
1566.5,7e+06,0,1,0.64235,0.0092295,0.013765,0.64235
1564.6,7e+06,0,1,0.64345,0.0092295,0.013765,0.64345
1562.6,7e+06,0,1,0.64455,0.0092295,0.013765,0.64455
1560.6,7e+06,0,1,0.64565,0.0092295,0.013765,0.64565
1558.6,7e+06,0,1,0.64675,0.0092295,0.013765,0.64675
1556.7,7e+06,0,1,0.64785,0.0092295,0.013765,0.64785
1554.7,7e+06,0,1,0.64895,0.0092295,0.013765,0.64895
1552.7,7e+06,0,1,0.65005,0.0092295,0.013765,0.65005
1550.7,7e+06,0,1,0.65115,0.0092295,0.013765,0.65115
1548.8,7e+06,0,1,0.65225,0.0092295,0.013765,0.65225
1546.8,7e+06,0,1,0.65335,0.0092295,0.013765,0.65335
1544.8,7e+06,0,1,0.65445,0.0092295,0.013765,0.65445
1542.8,7e+06,0,1,0.65555,0.0092295,0.013765,0.65555
1540.9,7e+06,0,1,0.65665,0.0092295,0.013765,0.65665
1538.9,7e+06,0,1,0.65775,0.0092295,0.013765,0.65775
1536.9,7e+06,0,1,0.65885,0.0092295,0.013765,0.65885
1534.9,7e+06,0,1,0.65995,0.0092295,0.013765,0.65995
1533,7e+06,0,1,0.66105,0.0092295,0.013765,0.66105
1531,7e+06,0,1,0.66215,0.0092295,0.013765,0.66215
1529,7e+06,0,1,0.66325,0.0092295,0.013765,0.66325
1527,7e+06,0,1,0.66435,0.0092295,0.013765,0.66435
1525.1,7e+06,0,1,0.66545,0.0092295,0.013765,0.66545
1523.1,7e+06,0,1,0.66655,0.0092295,0.013765,0.66655
1521.1,7e+06,0,1,0.66765,0.0092295,0.013765,0.66765
1519.1,7e+06,0,1,0.66875,0.0092295,0.013765,0.66875
1517.2,7e+06,0,1,0.66985,0.0092295,0.013765,0.66985
1515.2,7e+06,0,1,0.67095,0.0092295,0.013765,0.67095
1513.2,7e+06,0,1,0.67205,0.0092295,0.013765,0.67205
1511.2,7e+06,0,1,0.67315,0.0092295,0.013765,0.67315
1509.3,7e+06,0,1,0.67425,0.0092295,0.013765,0.67425
1507.3,7e+06,0,1,0.67535,0.0092295,0.013765,0.67535
1505.3,7e+06,0,1,0.67645,0.0092295,0.013765,0.67645
1503.3,7e+06,0,1,0.67755,0.0092295,0.013765,0.67755
1501.4,7e+06,0,1,0.67865,0.0092295,0.013765,0.67865
1499.4,7e+06,0,1,0.67975,0.0092295,0.013765,0.67975
1497.4,7e+06,0,1,0.68085,0.0092295,0.013765,0.68085
1495.4,7e+06,0,1,0.68195,0.0092295,0.013765,0.68195
1493.5,7e+06,0,1,0.68305,0.0092295,0.013765,0.68305
1491.5,7e+06,0,1,0.68415,0.0092295,0.013765,0.68415
1489.5,7e+06,0,1,0.68525,0.0092295,0.013765,0.68525
1487.5,7e+06,0,1,0.68635,0.0092295,0.013765,0.68635
1485.6,7e+06,0,1,0.68745,0.0092295,0.013765,0.68745
1483.6,7e+06,0,1,0.68855,0.0092295,0.013765,0.68855
1481.6,7e+06,0,1,0.68965,0.0092295,0.013765,0.68965
1479.6,7e+06,0,1,0.69075,0.0092295,0.013765,0.69075
1477.6,7e+06,0,1,0.69185,0.0092295,0.013765,0.69185
1475.6,7e+06,0,1,0.69295,0.0092295,0.013765,0.69295
1473.6,7e+06,0,1,0.69405,0.0092295,0.013765,0.69405
1471.6,7e+06,0,1,0.69515,0.0092295,0.013765,0.69515
1469.6,7e+06,0,1,0.69625,0.0092295,0.013765,0.69625
1467.6,7e+06,0,1,0.69735,0.0092295,0.013765,0.69735
1465.7,7e+06,0,1,0.69845,0.0092295,0.013765,0.69845
1463.7,7e+06,0,1,0.69955,0.0092295,0.013765,0.69955
1461.7,7e+06,0,1,0.70065,0.0092295,0.013765,0.70065
1459.7,7e+06,0,1,0.70175,0.0092295,0.013765,0.70175
1457.7,7e+06,0,1,0.70285,0.0092295,0.013765,0.70285
1455.7,7e+06,0,1,0.70395,0.0092295,0.013765,0.70395
1453.7,7e+06,0,1,0.70505,0.0092295,0.013765,0.70505
1451.7,7e+06,0,1,0.70615,0.0092295,0.013765,0.70615
1449.7,7e+06,0,1,0.70725,0.0092295,0.013765,0.70725
1447.8,7e+06,0,1,0.70835,0.0092295,0.013765,0.70835
1445.8,7e+06,0,1,0.70945,0.0092295,0.013765,0.70945
1443.8,7e+06,0,1,0.71055,0.0092295,0.013765,0.71055
1441.8,7e+06,0,1,0.71165,0.0092295,0.013765,0.71165
1439.8,7e+06,0,1,0.71275,0.0092295,0.013765,0.71275
1437.8,7e+06,0,1,0.71385,0.0092295,0.013765,0.71385
1435.8,7e+06,0,1,0.71495,0.0092295,0.013765,0.71495
1433.8,7e+06,0,1,0.71605,0.0092295,0.013765,0.71605
1431.8,7e+06,0,1,0.71715,0.0092295,0.013765,0.71715
1429.8,7e+06,0,1,0.71825,0.0092295,0.013765,0.71825
1427.9,7e+06,0,1,0.71935,0.0092295,0.013765,0.71935
1425.9,7e+06,0,1,0.72045,0.0092295,0.013765,0.72045
1423.9,7e+06,0,1,0.72155,0.0092295,0.013765,0.72155
1421.9,7e+06,0,1,0.72265,0.0092295,0.013765,0.72265
1419.9,7e+06,0,1,0.72375,0.0092295,0.013765,0.72375
1417.9,7e+06,0,1,0.72485,0.0092295,0.013765,0.72485
1415.9,7e+06,0,1,0.72595,0.0092295,0.013765,0.72595
1413.9,7e+06,0,1,0.72705,0.0092295,0.013765,0.72705
1411.9,7e+06,0,1,0.72815,0.0092295,0.013765,0.72815
1409.9,7e+06,0,1,0.72925,0.0092295,0.013765,0.72925
1408,7e+06,0,1,0.73035,0.0092295,0.013765,0.73035
1406,7e+06,0,1,0.73145,0.0092295,0.013765,0.73145
1404,7e+06,0,1,0.73255,0.0092295,0.013765,0.73255
1402,7e+06,0,1,0.73365,0.0092295,0.013765,0.73365
1400,7e+06,0,1,0.73475,0.0092295,0.013765,0.73475
1398,7e+06,0,1,0.73585,0.0092295,0.013765,0.73585
1396,7e+06,0,1,0.73695,0.0092295,0.013765,0.73695
1394,7e+06,0,1,0.73805,0.0092295,0.013765,0.73805
1392,7e+06,0,1,0.73915,0.0092295,0.013765,0.73915
1390,7e+06,0,1,0.74025,0.0092295,0.013765,0.74025
1388,7e+06,0,1,0.74135,0.0092295,0.013765,0.74135
1386,7e+06,0,1,0.74245,0.0092295,0.013765,0.74245
1384,7e+06,0,1,0.74355,0.0092295,0.013765,0.74355
1382,7e+06,0,1,0.74465,0.0092295,0.013765,0.74465
1380,7e+06,0,1,0.74575,0.0092295,0.013765,0.74575
1378,7e+06,0,1,0.74685,0.0092295,0.013765,0.74685
1376,7e+06,0,1,0.74795,0.0092295,0.013765,0.74795
1374,7e+06,0,1,0.74905,0.0092295,0.013765,0.74905
1372,7e+06,0,1,0.75015,0.0092295,0.013765,0.75015
1370,7e+06,0,1,0.75125,0.0092295,0.013765,0.75125
1368,7e+06,0,1,0.75235,0.0092295,0.013765,0.75235
1366,7e+06,0,1,0.75345,0.0092295,0.013765,0.75345
1364,7e+06,0,1,0.75455,0.0092295,0.013765,0.75455
1362,7e+06,0,1,0.75565,0.0092295,0.013765,0.75565
1360,7e+06,0,1,0.75674,0.0092295,0.013765,0.75674
1358,7e+06,0,1,0.75784,0.0092295,0.013765,0.75784
1356,7e+06,0,1,0.75894,0.0092295,0.013765,0.75894
1354,7e+06,0,1,0.76004,0.0092295,0.013765,0.76004
1352,7e+06,0,1,0.76114,0.0092295,0.013765,0.76114
1350,7e+06,0,1,0.76224,0.0092295,0.013765,0.76224
1348,7e+06,0,1,0.76334,0.0092295,0.013765,0.76334
1346,7e+06,0,1,0.76444,0.0092295,0.013765,0.76444
1344,7e+06,0,1,0.76554,0.0092295,0.013765,0.76554
1342,7e+06,0,1,0.76664,0.0092295,0.013765,0.76664
1340,7e+06,0,1,0.76774,0.0092295,0.013765,0.76774
1338,7e+06,0,1,0.76884,0.0092295,0.013765,0.76884
1336,7e+06,0,1,0.76994,0.0092295,0.013765,0.76994
1334,7e+06,0,1,0.77104,0.0092295,0.013765,0.77104
1332,7e+06,0,1,0.77214,0.0092295,0.013765,0.77214
1330,7e+06,0,1,0.77324,0.0092295,0.013765,0.77324
1328,7e+06,0,1,0.77434,0.0092295,0.013765,0.77434
1326,7e+06,0,1,0.77544,0.0092295,0.013765,0.77544
1324,7e+06,0,1,0.77654,0.0092295,0.013765,0.77654
1322,7e+06,0,1,0.77764,0.0092295,0.013765,0.77764
1320,7e+06,0,1,0.77874,0.0092295,0.013765,0.77874
1318,7e+06,0,1,0.77984,0.0092295,0.013765,0.77984
1316,7e+06,0,1,0.78094,0.0092295,0.013765,0.78094
1313.9,7e+06,0,1,0.78204,0.0092295,0.013765,0.78204
1311.9,7e+06,0,1,0.78314,0.0092295,0.013765,0.78314
1309.9,7e+06,0,1,0.78424,0.0092295,0.013765,0.78424
1307.9,7e+06,0,1,0.78534,0.0092295,0.013765,0.78534
1305.9,7e+06,0,1,0.78644,0.0092295,0.013765,0.78644
1303.9,7e+06,0,1,0.78754,0.0092295,0.013765,0.78754
1301.9,7e+06,0,1,0.78864,0.0092295,0.013765,0.78864
1299.8,7e+06,0,1,0.78974,0.0092295,0.013765,0.78974
1297.8,7e+06,0,1,0.79084,0.0092295,0.013765,0.79084
1295.8,7e+06,0,1,0.79194,0.0092295,0.013765,0.79194
1293.8,7e+06,0,1,0.79304,0.0092295,0.013765,0.79304
1291.8,7e+06,0,1,0.79414,0.0092295,0.013765,0.79414
1289.8,7e+06,0,1,0.79524,0.0092295,0.013765,0.79524
1287.8,7e+06,0,1,0.79634,0.0092295,0.013765,0.79634
1285.7,7e+06,0,1,0.79744,0.0092295,0.013765,0.79744
1283.7,7e+06,0,1,0.79854,0.0092295,0.013765,0.79854
1281.7,7e+06,0,1,0.79964,0.0092295,0.013765,0.79964
1279.7,7e+06,0,1,0.80074,0.0092295,0.013765,0.80074
1277.7,7e+06,0,1,0.80184,0.0092295,0.013765,0.80184
1275.7,7e+06,0,1,0.80294,0.0092295,0.013765,0.80294
1273.7,7e+06,0,1,0.80404,0.0092295,0.013765,0.80404
1271.6,7e+06,0,1,0.80514,0.0092295,0.013765,0.80514
1269.6,7e+06,0,1,0.80624,0.0092295,0.013765,0.80624
1267.6,7e+06,0,1,0.80734,0.0092295,0.013765,0.80734
1265.6,7e+06,0,1,0.80844,0.0092295,0.013765,0.80844
1263.6,7e+06,0,1,0.80954,0.0092295,0.013765,0.80954
1261.6,7e+06,0,1,0.81064,0.0092295,0.013765,0.81064
1259.6,7e+06,0,1,0.81174,0.0092295,0.013765,0.81174
1257.5,7e+06,0,1,0.81284,0.0092295,0.013765,0.81284
1255.5,7e+06,0,1,0.81394,0.0092295,0.013765,0.81394
1253.5,7e+06,0,1,0.81504,0.0092295,0.013765,0.81504
1251.5,7e+06,0,1,0.81614,0.0092295,0.013765,0.81614
1249.5,7e+06,0,1,0.81724,0.0092295,0.013765,0.81724
1247.5,7e+06,0,1,0.81834,0.0092295,0.013765,0.81834
1245.5,7e+06,0,1,0.81944,0.0092295,0.013765,0.81944
1243.4,7e+06,0,1,0.82054,0.0092295,0.013765,0.82054
1241.4,7e+06,0,1,0.82164,0.0092295,0.013765,0.82164
1239.4,7e+06,0,1,0.82274,0.0092295,0.013765,0.82274
1237.4,7e+06,0,1,0.82384,0.0092295,0.013765,0.82384
1235.4,7e+06,0,1,0.82494,0.0092295,0.013765,0.82494
1233.4,7e+06,0,1,0.82604,0.0092295,0.013765,0.82604
1231.3,7e+06,0,1,0.82714,0.0092295,0.013765,0.82714
1229.3,7e+06,0,1,0.82824,0.0092295,0.013765,0.82824
1227.3,7e+06,0,1,0.82934,0.0092295,0.013765,0.82934
1225.3,7e+06,0,1,0.83044,0.0092295,0.013765,0.83044
1223.3,7e+06,0,1,0.83154,0.0092295,0.013765,0.83154
1221.2,7e+06,0,1,0.83264,0.0092295,0.013765,0.83264
1219.2,7e+06,0,1,0.83374,0.0092295,0.013765,0.83374
1217.2,7e+06,0,1,0.83484,0.0092295,0.013765,0.83484
1215.2,7e+06,0,1,0.83594,0.0092295,0.013765,0.83594
1213.2,7e+06,0,1,0.83704,0.0092295,0.013765,0.83704
1211.2,7e+06,0,1,0.83814,0.0092295,0.013765,0.83814
1209.1,7e+06,0,1,0.83924,0.0092295,0.013765,0.83924
1207.1,7e+06,0,1,0.84034,0.0092295,0.013765,0.84034
1205.1,7e+06,0,1,0.84144,0.0092295,0.013765,0.84144
1203.1,7e+06,0,1,0.84254,0.0092295,0.013765,0.84254
1201.1,7e+06,0,1,0.84364,0.0092295,0.013765,0.84364
1199,7e+06,0,1,0.84474,0.0092295,0.013765,0.84474
1197,7e+06,0,1,0.84584,0.0092295,0.013765,0.84584
1195,7e+06,0,1,0.84694,0.0092295,0.013765,0.84694
1193,7e+06,0,1,0.84804,0.0092295,0.013765,0.84804
1191,7e+06,0,1,0.84914,0.0092295,0.013765,0.84914
1188.9,7e+06,0,1,0.85024,0.0092295,0.013765,0.85024
1186.9,7e+06,0,1,0.85134,0.0092295,0.013765,0.85134
1184.9,7e+06,0,1,0.85244,0.0092295,0.013765,0.85244
1182.9,7e+06,0,1,0.85354,0.0092295,0.013765,0.85354
1180.9,7e+06,0,1,0.85464,0.0092295,0.013765,0.85464
1178.9,7e+06,0,1,0.85574,0.0092295,0.013765,0.85574
1176.8,7e+06,0,1,0.85684,0.0092295,0.013765,0.85684
1174.8,7e+06,0,1,0.85794,0.0092295,0.013765,0.85794
1172.8,7e+06,0,1,0.85904,0.0092295,0.013765,0.85904
1170.8,7e+06,0,1,0.86014,0.0092295,0.013765,0.86014
1168.8,7e+06,0,1,0.86124,0.0092295,0.013765,0.86124
1166.7,7e+06,0,1,0.86234,0.0092295,0.013765,0.86234
1164.7,7e+06,0,1,0.86344,0.0092295,0.013765,0.86344
1162.7,7e+06,0,1,0.86454,0.0092295,0.013765,0.86454
1160.7,7e+06,0,1,0.86564,0.0092295,0.013765,0.86564
1158.7,7e+06,0,1,0.86674,0.0092295,0.013765,0.86674
1156.6,7e+06,0,1,0.86784,0.0092295,0.013765,0.86784
1154.6,7e+06,0,1,0.86894,0.0092295,0.013765,0.86894
1152.6,7e+06,0,1,0.87004,0.0092295,0.013765,0.87004
1150.6,7e+06,0,1,0.87114,0.0092295,0.013765,0.87114
1148.6,7e+06,0,1,0.87224,0.0092295,0.013765,0.87224
1146.5,7e+06,0,1,0.87334,0.0092295,0.013765,0.87334
1144.5,7e+06,0,1,0.87444,0.0092295,0.013765,0.87444
1142.5,7e+06,0,1,0.87554,0.0092295,0.013765,0.87554
1140.4,7e+06,0,1,0.87664,0.0092295,0.013765,0.87664
1138.4,7e+06,0,1,0.87774,0.0092295,0.013765,0.87774
1136.4,7e+06,0,1,0.87884,0.0092295,0.013765,0.87884
1134.3,7e+06,0,1,0.87994,0.0092295,0.013765,0.87994
1132.3,7e+06,0,1,0.88104,0.0092295,0.013765,0.88104
1130.3,7e+06,0,1,0.88214,0.0092295,0.013765,0.88214
1128.2,7e+06,0,1,0.88324,0.0092295,0.013765,0.88324
1126.2,7e+06,0,1,0.88434,0.0092295,0.013765,0.88434
1124.2,7e+06,0,1,0.88544,0.0092295,0.013765,0.88544
1122.1,7e+06,0,1,0.88654,0.0092295,0.013765,0.88654
1120.1,7e+06,0,1,0.88764,0.0092295,0.013765,0.88764
1118.1,7e+06,0,1,0.88874,0.0092295,0.013765,0.88874
1116,7e+06,0,1,0.88984,0.0092295,0.013765,0.88984
1114,7e+06,0,1,0.89094,0.0092295,0.013765,0.89094
1112,7e+06,0,1,0.89204,0.0092295,0.013765,0.89204
1109.9,7e+06,0,1,0.89314,0.0092295,0.013765,0.89314
1107.9,7e+06,0,1,0.89424,0.0092295,0.013765,0.89424
1105.9,7e+06,0,1,0.89533,0.0092295,0.013765,0.89533
1103.9,7e+06,0,1,0.89643,0.0092295,0.013765,0.89643
1101.8,7e+06,0,1,0.89753,0.0092295,0.013765,0.89753
1099.8,7e+06,0,1,0.89863,0.0092295,0.013765,0.89863
1097.8,7e+06,0,1,0.89973,0.0092295,0.013765,0.89973
1095.7,7e+06,0,1,0.90083,0.0092295,0.013765,0.90083
1093.7,7e+06,0,1,0.90193,0.0092295,0.013765,0.90193
1091.7,7e+06,0,1,0.90303,0.0092295,0.013765,0.90303
1089.6,7e+06,0,1,0.90413,0.0092295,0.013765,0.90413
1087.6,7e+06,0,1,0.90523,0.0092295,0.013765,0.90523
1085.6,7e+06,0,1,0.90633,0.0092295,0.013765,0.90633
1083.5,7e+06,0,1,0.90743,0.0092295,0.013765,0.90743
1081.5,7e+06,0,1,0.90853,0.0092295,0.013765,0.90853
1079.5,7e+06,0,1,0.90963,0.0092295,0.013765,0.90963
1077.4,7e+06,0,1,0.91073,0.0092295,0.013765,0.91073
1075.4,7e+06,0,1,0.91183,0.0092295,0.013765,0.91183
1073.4,7e+06,0,1,0.91293,0.0092295,0.013765,0.91293
1071.3,7e+06,0,1,0.91403,0.0092295,0.013765,0.91403
1069.3,7e+06,0,1,0.91513,0.0092295,0.013765,0.91513
1067.3,7e+06,0,1,0.91623,0.0092295,0.013765,0.91623
1065.3,7e+06,0,1,0.91733,0.0092295,0.013765,0.91733
1063.2,7e+06,0,1,0.91843,0.0092295,0.013765,0.91843
1061.2,7e+06,0,1,0.91953,0.0092295,0.013765,0.91953
1059.2,7e+06,0,1,0.92063,0.0092295,0.013765,0.92063
1057.2,7e+06,0,1,0.92173,0.0092295,0.013765,0.92173
1055.1,7e+06,0,1,0.92283,0.0092295,0.013765,0.92283
1053.1,7e+06,0,1,0.92393,0.0092295,0.013765,0.92393
1051.1,7e+06,0,1,0.92503,0.0092295,0.013765,0.92503
1049.1,7e+06,0,1,0.92613,0.0092295,0.013765,0.92613
1047,7e+06,0,1,0.92723,0.0092295,0.013765,0.92723
1045,7e+06,0,1,0.92833,0.0092295,0.013765,0.92833
1043,7e+06,0,1,0.92943,0.0092295,0.013765,0.92943
1041,7e+06,0,1,0.93053,0.0092295,0.013765,0.93053
1039,7e+06,0,1,0.93163,0.0092295,0.013765,0.93163
1036.9,7e+06,0,1,0.93273,0.0092295,0.013765,0.93273
1034.9,7e+06,0,1,0.93383,0.0092295,0.013765,0.93383
1032.9,7e+06,0,1,0.93493,0.0092295,0.013765,0.93493
1030.9,7e+06,0,1,0.93603,0.0092295,0.013765,0.93603
1028.8,7e+06,0,1,0.93713,0.0092295,0.013765,0.93713
1026.8,7e+06,0,1,0.93823,0.0092295,0.013765,0.93823
1024.8,7e+06,0,1,0.93933,0.0092295,0.013765,0.93933
1022.8,7e+06,0,1,0.94043,0.0092295,0.013765,0.94043
1020.7,7e+06,0,1,0.94153,0.0092295,0.013765,0.94153
1018.7,7e+06,0,1,0.94263,0.0092295,0.013765,0.94263
1016.7,7e+06,0,1,0.94373,0.0092295,0.013765,0.94373
1014.7,7e+06,0,1,0.94483,0.0092295,0.013765,0.94483
1012.7,7e+06,0,1,0.94593,0.0092295,0.013765,0.94593
1010.6,7e+06,0,1,0.94703,0.0092295,0.013765,0.94703
1008.6,7e+06,0,1,0.94813,0.0092295,0.013765,0.94813
1006.6,7e+06,0,1,0.94923,0.0092295,0.013765,0.94923
1004.6,7e+06,0,1,0.95033,0.0092295,0.013765,0.95033
1002.5,7e+06,0,1,0.95143,0.0092295,0.013765,0.95143
1000.5,7e+06,0,1,0.95253,0.0092295,0.013765,0.95253
998.5,7e+06,0,1,0.95363,0.0092295,0.013765,0.95363
996.47,7e+06,0,1,0.95473,0.0092295,0.013765,0.95473
994.45,7e+06,0,1,0.95583,0.0092295,0.013765,0.95583
992.43,7e+06,0,1,0.95693,0.0092295,0.013765,0.95693
990.41,7e+06,0,1,0.95803,0.0092295,0.013765,0.95803
988.38,7e+06,0,1,0.95913,0.0092295,0.013765,0.95913
986.36,7e+06,0,1,0.96023,0.0092295,0.013765,0.96023
984.34,7e+06,0,1,0.96133,0.0092295,0.013765,0.96133
982.31,7e+06,0,1,0.96243,0.0092295,0.013765,0.96243
980.26,7e+06,0,1,0.96353,0.0092295,0.013765,0.96353
978.21,7e+06,0,1,0.96463,0.0092295,0.013765,0.96463
976.16,7e+06,0,1,0.96573,0.0092295,0.013765,0.96573
974.11,7e+06,0,1,0.96683,0.0092295,0.013765,0.96683
972.05,7e+06,0,1,0.96793,0.0092295,0.013765,0.96793
970,7e+06,0,1,0.96903,0.0092295,0.013765,0.96903
967.95,7e+06,0,1,0.97013,0.0092295,0.013765,0.97013
965.9,7e+06,0,1,0.97123,0.0092295,0.013765,0.97123
963.85,7e+06,0,1,0.97233,0.0092295,0.013765,0.97233
961.79,7e+06,0,1,0.97343,0.0092295,0.013765,0.97343
959.74,7e+06,0,1,0.97453,0.0092295,0.013765,0.97453
957.69,7e+06,0,1,0.97563,0.0092295,0.013765,0.97563
955.64,7e+06,0,1,0.97673,0.0092295,0.013765,0.97673
953.59,7e+06,0,1,0.97783,0.0092295,0.013765,0.97783
951.53,7e+06,0,1,0.97893,0.0092295,0.013765,0.97893
949.48,7e+06,0,1,0.98003,0.0092295,0.013765,0.98003
947.43,7e+06,0,1,0.98113,0.0092295,0.013765,0.98113
945.38,7e+06,0,1,0.98223,0.0092295,0.013765,0.98223
943.33,7e+06,0,1,0.98333,0.0092295,0.013765,0.98333
941.27,7e+06,0,1,0.98443,0.0092295,0.013765,0.98443
939.22,7e+06,0,1,0.98553,0.0092295,0.013765,0.98553
937.17,7e+06,0,1,0.98663,0.0092295,0.013765,0.98663
935.12,7e+06,0,1,0.98773,0.0092295,0.013765,0.98773
933.06,7e+06,0,1,0.98883,0.0092295,0.013765,0.98883
931.01,7e+06,0,1,0.98993,0.0092295,0.013765,0.98993
928.96,7e+06,0,1,0.99103,0.0092295,0.013765,0.99103
926.91,7e+06,0,1,0.99213,0.0092295,0.013765,0.99213
924.86,7e+06,0,1,0.99323,0.0092295,0.013765,0.99323
922.8,7e+06,0,1,0.99433,0.0092295,0.013765,0.99433
920.75,7e+06,0,1,0.99543,0.0092295,0.013765,0.99543
918.7,7e+06,0,1,0.99653,0.0092295,0.013765,0.99653
916.65,7e+06,0,1,0.99763,0.0092295,0.013765,0.99763
914.6,7e+06,0,1,0.99873,0.0092295,0.013765,0.99873
912.54,7e+06,0,1,0.99983,0.0092295,0.013765,0.99983
910.49,7e+06,0,1,1.0009,0.0092295,0.013765,1.0009
908.44,7e+06,0,1,1.002,0.0092295,0.013765,1.002
906.39,7e+06,0,1,1.0031,0.0092295,0.013765,1.0031
904.34,7e+06,0,1,1.0042,0.0092295,0.013765,1.0042
902.28,7e+06,0,1,1.0053,0.0092295,0.013765,1.0053
900.23,7e+06,0,1,1.0064,0.0092295,0.013765,1.0064
898.18,7e+06,0,1,1.0075,0.0092295,0.013765,1.0075
896.07,7e+06,0,1,1.0086,0.0092295,0.013765,1.0086
893.85,7e+06,0,1,1.0097,0.0092295,0.013765,1.0097
891.64,7e+06,0,1,1.0108,0.0092295,0.013765,1.0108
889.42,7e+06,0,1,1.0119,0.0092295,0.013765,1.0119
887.2,7e+06,0,1,1.013,0.0092295,0.013765,1.013
884.98,7e+06,0,1,1.0141,0.0092295,0.013765,1.0141
882.76,7e+06,0,1,1.0152,0.0092295,0.013765,1.0152
880.55,7e+06,0,1,1.0163,0.0092295,0.013765,1.0163
878.33,7e+06,0,1,1.0174,0.0092295,0.013765,1.0174
876.11,7e+06,0,1,1.0185,0.0092295,0.013765,1.0185
873.89,7e+06,0,1,1.0196,0.0092295,0.013765,1.0196
871.67,7e+06,0,1,1.0207,0.0092295,0.013765,1.0207
869.46,7e+06,0,1,1.0218,0.0092295,0.013765,1.0218
867.24,7e+06,0,1,1.0229,0.0092295,0.013765,1.0229
865.02,7e+06,0,1,1.024,0.0092295,0.013765,1.024
862.8,7e+06,0,1,1.0251,0.0092295,0.013765,1.0251
860.59,7e+06,0,1,1.0262,0.0092295,0.013765,1.0262
858.37,7e+06,0,1,1.0273,0.0092295,0.013765,1.0273
856.15,7e+06,0,1,1.0284,0.0092295,0.013765,1.0284
853.93,7e+06,0,1,1.0295,0.0092295,0.013765,1.0295
851.71,7e+06,0,1,1.0306,0.0092295,0.013765,1.0306
849.5,7e+06,0,1,1.0317,0.0092295,0.013765,1.0317
847.28,7e+06,0,1,1.0328,0.0092295,0.013765,1.0328
845.06,7e+06,0,1,1.0339,0.0092295,0.013765,1.0339
842.84,7e+06,0,1,1.035,0.0092295,0.013765,1.035
840.62,7e+06,0,1,1.0361,0.0092295,0.013765,1.0361
838.41,7e+06,0,1,1.0372,0.0092295,0.013765,1.0372
836.19,7e+06,0,1,1.0383,0.0092295,0.013765,1.0383
833.97,7e+06,0,1,1.0394,0.0092295,0.013765,1.0394
831.75,7e+06,0,1,1.0405,0.0092295,0.013765,1.0405
829.53,7e+06,0,1,1.0416,0.0092295,0.013765,1.0416
827.32,7e+06,0,1,1.0427,0.0092295,0.013765,1.0427
825.1,7e+06,0,1,1.0438,0.0092295,0.013765,1.0438
822.88,7e+06,0,1,1.0449,0.0092295,0.013765,1.0449
820.66,7e+06,0,1,1.046,0.0092295,0.013765,1.046
818.44,7e+06,0,1,1.0471,0.0092295,0.013765,1.0471
816.23,7e+06,0,1,1.0482,0.0092295,0.013765,1.0482
814.01,7e+06,0,1,1.0493,0.0092295,0.013765,1.0493
811.79,7e+06,0,1,1.0504,0.0092295,0.013765,1.0504
809.57,7e+06,0,1,1.0515,0.0092295,0.013765,1.0515
807.35,7e+06,0,1,1.0526,0.0092295,0.013765,1.0526
805.14,7e+06,0,1,1.0537,0.0092295,0.013765,1.0537
803.62,7e+06,0,1,1.0548,0.0092295,0.013765,1.0548
802.46,7e+06,0,1,1.0559,0.0092295,0.013765,1.0559
801.3,7e+06,0,1,1.057,0.0092295,0.013765,1.057
800.14,7e+06,0,1,1.0581,0.0092295,0.013765,1.0581
798.98,7e+06,0,1,1.0592,0.0092295,0.013765,1.0592
797.82,7e+06,0,1,1.0603,0.0092295,0.013765,1.0603
796.66,7e+06,0,1,1.0614,0.0092295,0.013765,1.0614
795.5,7e+06,0,1,1.0625,0.0092295,0.013765,1.0625
794.33,7e+06,0,1,1.0636,0.0092295,0.013765,1.0636
793.17,7e+06,0,1,1.0647,0.0092295,0.013765,1.0647
792.01,7e+06,0,1,1.0658,0.0092295,0.013765,1.0658
790.85,7e+06,0,1,1.0669,0.0092295,0.013765,1.0669
789.69,7e+06,0,1,1.068,0.0092295,0.013765,1.068
788.53,7e+06,0,1,1.0691,0.0092295,0.013765,1.0691
787.37,7e+06,0,1,1.0702,0.0092295,0.013765,1.0702
786.21,7e+06,0,1,1.0713,0.0092295,0.013765,1.0713
785.04,7e+06,0,1,1.0724,0.0092295,0.013765,1.0724
783.88,7e+06,0,1,1.0735,0.0092295,0.013765,1.0735
782.72,7e+06,0,1,1.0746,0.0092295,0.013765,1.0746
781.56,7e+06,0,1,1.0757,0.0092295,0.013765,1.0757
780.4,7e+06,0,1,1.0768,0.0092295,0.013765,1.0768
779.24,7e+06,0,1,1.0779,0.0092295,0.013765,1.0779
778.08,7e+06,0,1,1.079,0.0092295,0.013765,1.079
776.92,7e+06,0,1,1.0801,0.0092295,0.013765,1.0801
775.76,7e+06,0,1,1.0812,0.0092295,0.013765,1.0812
774.59,7e+06,0,1,1.0823,0.0092295,0.013765,1.0823
773.43,7e+06,0,1,1.0834,0.0092295,0.013765,1.0834
772.27,7e+06,0,1,1.0845,0.0092295,0.013765,1.0845
771.11,7e+06,0,1,1.0856,0.0092295,0.013765,1.0856
769.95,7e+06,0,1,1.0867,0.0092295,0.013765,1.0867
768.79,7e+06,0,1,1.0878,0.0092295,0.013765,1.0878
767.63,7e+06,0,1,1.0889,0.0092295,0.013765,1.0889
766.47,7e+06,0,1,1.09,0.0092295,0.013765,1.09
765.3,7e+06,0,1,1.0911,0.0092295,0.013765,1.0911
764.14,7e+06,0,1,1.0922,0.0092295,0.013765,1.0922
762.98,7e+06,0,1,1.0933,0.0092295,0.013765,1.0933
761.82,7e+06,0,1,1.0944,0.0092295,0.013765,1.0944
760.66,7e+06,0,1,1.0955,0.0092295,0.013765,1.0955
759.5,7e+06,0,1,1.0966,0.0092295,0.013765,1.0966
758.34,7e+06,0,1,1.0977,0.0092295,0.013765,1.0977
757.18,7e+06,0,1,1.0988,0.0092295,0.013765,1.0988
756.02,7e+06,0,1,1.0999,0.0092295,0.013765,1.0999
