T,k,x,unitsT,unitsk,mat,ref,ref2,ref3
0.251913466,18.58186446,Notes:,Temperature Units: [K],Thermal Conductivity Units: [W/(m-K)],Thermal Conductivity of Beryllium,Digitized from http://therpro.hanyang.ac.kr/ ,"REFERENCE: Touloukian, Y. S., S. C. Saxena, and P. Hestermans. Thermophysical Properties of Matter-the TPRC Data Series. Volume 1. Thermal Conductivity - Metallic Elements and Alloys (1975)",LINK:  http://therpro.hanyang.ac.kr/ 
10.74212446,1629.217881,,,,,,,
17.46661868,3174.497379,,,,,,,
25.25033669,4113.529868,,,,,,,
30.38135766,4553.321065,,,,,,,
35.42519209,4713.76657,,,,,,,
41.6358422,4612.689538,,,,,,,
45.31993752,4416.53094,,,,,,,
50.18383376,4000.454483,,,,,,,
59.85412021,2984.052282,,,,,,,
69.58933282,2175.67347,,,,,,,
80.65274897,1622.858828,,,,,,,
89.27865191,1260.251839,,,,,,,
101.6814018,998.6625213,,,,,,,
151.4500792,457.5049066,,,,,,,
201.3430438,314.5634922,,,,,,,
250.0116867,248.8953279,,,,,,,
274.9730093,224.9728238,,,,,,,
301.1883341,218.8734756,,,,,,,
351.1165443,188.8590435,,,,,,,
401.0503196,176.6751875,,,,,,,
500.9178703,152.3074754,,,,,,,
599.5406939,139.8342343,,,,,,,
701.9088288,127.3387327,,,,,,,
799.2832153,114.8729117,,,,,,,
901.6513503,102.3774102,,,,,,,
1000.277884,97.13125767,,,,,,,
1101.397582,89.30313834,,,,,,,
1200.020405,77.82989719,,,,,,,
1301.141958,70.28534116,,,,,,,
1401.013219,57.80467988,,,,,,,
