T,k,,,,,,,
302.5946744,30.13468013,Notes:,Temperature Units: [K],Thermal Conductivity Units: [W/(m-K)],Thermal conductivity of 93.3% RD ZrC up to 1100 C Fig. 11 p. 12,Converted [C] to [K] by adding 273.15,REFERENCE:,LINK: https://doi.org/10.3390/ma9070577
324.454139,30.26936027,,,,,,,
341.4618489,30.47138047,,,,,,,
360.8974799,30.67340067,,,,,,,
374.2633081,30.87542088,,,,,,,
398.5466064,30.94276094,,,,,,,
431.3276286,31.01010101,,,,,,,
453.1870932,31.14478114,,,,,,,
473.8366848,31.34680135,,,,,,,
504.1979606,31.54882155,,,,,,,
541.855262,31.95286195,,,,,,,
573.4427607,32.35690236,,,,,,,
608.6476165,32.35690236,,,,,,,
636.5687091,32.35690236,,,,,,,
657.2101258,32.42424242,,,,,,,
676.6416693,32.55892256,,,,,,,
709.4308663,32.76094276,,,,,,,
750.7300494,33.16498316,,,,,,,
778.6674916,33.43434343,,,,,,,
802.9548773,33.56902357,,,,,,,
836.9621222,33.83838384,,,,,,,
857.6076263,33.97306397,,,,,,,
880.6892264,34.24242424,,,,,,,
913.4825107,34.51178451,,,,,,,
949.9258516,34.91582492,,,,,,,
975.4353727,35.18518519,,,,,,,
999.7268458,35.38720539,,,,,,,
1037.38006,35.72390572,,,,,,,
1065.317502,35.99326599,,,,,,,
1073.823401,36.12794613,,,,,,,
1104.184677,36.32996633,,,,,,,
1139.405882,36.5993266,,,,,,,
1160.051386,36.73400673,,,,,,,
1178.277144,37.003367,,,,,,,
1200.136609,37.13804714,,,,,,,
1231.72002,37.47474747,,,,,,,
1253.583572,37.67676768,,,,,,,
1275.451211,37.94612795,,,,,,,
1296.100803,38.14814815,,,,,,,
1317.968442,38.41750842,,,,,,,
1344.696011,38.75420875,,,,,,,
1367.777611,39.02356902,,,,,,,
1376.279423,39.09090909,,,,,,,
